x
140up
18w
mir-312
Nsf2[lotus-312]
A16
Df(2L)pr-A16
P{Adh-lacZ.mut.Adh-lacZ.wt.loxP.FRT}A16
AIF
AP-2sigma[KG02457]
ATPsynbeta
AlaRS
ArgRS
CysRS
GlnRS
GluProRS
HisRS
TrpRS
Ac76E
P{hb[Delta.Ace]}
P{UAS-Ack.S}
Acp1
Acp65Aa
Acph-1
P{Act5C-GAL4.U}
Ada2a
eIF3j
Ak2
Afti
P{UAS-Akt1.HA}
Mps1
Alg-2
Datp
Arf79F
Arpc3A
Ars-region2
Asph
Atox1
Atpalpha[01453a]
Atu
Axud1
T(Y;2)B4
Tp(1;Y)B4
P{AP-2-lacZ.B4}
P{UAS-VGlut.B4.GFP}
P{B4-EGFP}
l(1)9Fl[B4]
T(1;Y)B52
Su(rst)B52
P{UAS-VGlut.B52.GFP}
Su(rst)B52[B52]
BI-1
Bet3
CAHbeta
CG10026
CG10053
CG10055
CG10098
CG10139
Vps8
CG10175
grnd
udt
CG10237
Kank
CG10283
CG10337
CG10345
CG10353
Naxd
CG10428
CG10435
CG10492
CG10494
CG10512
CG10527
CG10657
CG10674
cmb
CG10737
daed
CG10936
CG10970
CG10973
CG10984
CG11007
CG1103
Ube4A
CG11073
Wdr33
Mink
CG11127
Pits
CG11168
CG11170
CG11178
CG11200
Tmem63
Alg11
CG11307
CG11309
LUBEL
CG11334
CG11357
CG1136
CG11367
CG32454
CG11396
Pcif1
CG11454
CG1146
CG11562
CNPYb
CG11583
CG11586
CG11590
CG11596
CG1161
CG11686
CG11696
CG11699
CG11755
CG11771
EMC6
CG11790
CG11808
CG11858
RIOK2
CG11885
CG11905
Mon1
CG11980
Iru
CG12024
CG12025
CG12096
CG12099
CG12159
CG33293
CG12179
red
mlt
CG12224
CG12253
AIMP2
CG12316
CG12320
CG12321
CG12325
CG46280
CG46281
ND-B14.5B
CG12483
CG12499
CG12547
CG12581
CG12608
CG12643
CG1265
CG12702
CG12730
CG1275
CG12811
CG12814
ND-B15
CG12863
CG12880
CG12935
CG12947
CG12948
Trmt112
CG12991
CG12998
CG13003
CG13004
CG13012
CG13014
CG13024
CG13043
CG13053
CG13062
CG13065
CG1307
CG13082
CG1309
CG13097
CG13101
CG13116
CG13124
CG13231
CG13255
CG13272
CG13295
CG13314
SCCRO3
CG13364
CG13365
CG13428
CG13516
CG13599
CG13601
CG13606
CG13631
CG13663
CG13671
CG13689
CG13698
CG1371
CG13721
CG13722
CG13731
CG13742
CG13760
CG13833
CG13868
CG13893
CG13895
CG13896
Sf3b3
CG13907
CG13926
CG13933
SWIP
CG13994
senju
CG14100
CG34116
CG14109
CG14135
CG14182
CG14218
CG14223
CG14232
CG14253
CG14257
CG14286
CG14314
CG1434
side-IV
CG1441
CG14435
sov
CG14439
CG14440
CG14442
CG14445
CG14464
CG14480
CG14483
jus
CG14543
CG14544
CG14561
CG14566
thw
wap
Usp2
CG14621
CG14626
CG14646
CG14661
CG14696
CG14722
CG14770
CG1486
Sdhaf3
CG14961
CG14969
CG14971
CG14984
CG14985
CG15019
CG15027
CG15080
CG15099
CG1513
CG15160
EMC5
CG15211
CG1523
CG15249
CG15282
CG15353
CG1542
CG15445
CG15465
TTLL12
CG15535
CG15601
CG15602
THADA
tank
CG15643
CG15674
CG15717
CG15814
CG15822
CG15877
mldr
CG15905
CG1620
CG1635
CG1646
CG1648
CG16711
CG16717
subdued
CG16721
CG16753
CG16786
CG16787
TTLL4A
CG16865
Vajk3
Vajk2
Vajk1
CG16896
CG16953
CG16959
CG16972
CG16979
CG1698
CG17032
CG17059
conu
CG17119
CG17124
CG17163
Arfip
CG17211
CG17272
Bdbt
CG17298
Cndp2
CG17343
CG1737
CG17490
CG17508
CG17549
EMC2A
CG17574
CG17600
CG1764
EMRE
CG17683
CG17712
CG17721
CG17734
CG17765
CG17776
CG17777
CG17786
CG17834
CG17839
CG1785
CG17883
CG17904
CG17982
CG18004
CG18048
CG18081
CG1814
CG18171
CG1824
udd
Rim2
CG18428
AOX1
CG18622
ND-MNLL
CG18661
CG18731
CG18870
CG1888
CG1927
CG1941
CG1943
CG2004
CG2017
PSMG1
CG2061
CG2076
CG2150
CG2157
CG2162
CG2182
Gasz
CG2211
CG2260
CG2277
CG2310
CG2321
CG2519
CG2608
CG2662
CG2663
CG2691
CG2698
CG2812
snsl
Stoml2
CG2972
Naxe
CG2991
CG30001
CG30094
CG30109
CG30116
Usp30
AIMP3
CG44253
CG30195
CG30349
CG30380
PIG-X
CG30389
CG30394
CG3045
CG46491
CG46492
CG30460
CG3071
CG31028
CG3104
CG3107
CG31125
CG31142
CG31145
CG31211
CG31249
CG31313
CG31342
CG31460
CG31475
CG31510
NKCC
CG31550
CG3156
CG31633
CG31635
CG31638
CG3165
CG31650
CG31687
CG31688
CG31712
CG31715
CG31800
CG31815
CG31904
CG31908
ND-ASHI
CG31922
CG31937
CG31957
CG44838
CG32066
CG32075
CG32100
lncRNA:CR32111
CG32137
CG32147
Arts
CG32170
CG32191
CG3224
PMP34
CG32267
CG32278
CG32280
Vps11
CG32373
CG32409
EMC10
Arv1
CG32448
CG32485
CG32521
CG32537
CG32563
CG32590
CG32638
CG32645
stx
CG32795
Tmc
CG32803
CG32815
CG32816
CG32829
EndoU
CG33054
CG33056
CG3308
CG33095
CG33096
CG33107
CG33111
CG33158
CG33169
CG33229
CG33506
CG33509
CG33521
CG3358
ocm
CG33774
CG33978
CG3402
CG3408
CG34112
CG34125
CG34126
CG34133
CG34150
CG34159
CG34195
CG3420
CG34205
CG34208
CG34213
CG34228
CG34242
CG3434
stac
CG34375
CG34382
CG34398
CG34408
ND-MWFE
CG34461
CG3511
CG3520
Prp40
CG3548
CG3552
UQCR-14
CG3587
CG3588
CG3603
CG3626
CG3634
CG3638
CG3645
CG3655
CG3663
CG3704
CG3709
CG3735
CG3746
CG3776
CG3777
CG3793
CG3817
CG3823
CG3857
CG3860
CG3880
CG3918
CG4000
CG4004
CG4017
l(3)80Fg
CG40191
CG4022
CG4025
Rbpn-5
CG4036
CG40439
Tmtc3
Rtca
CG44774
CG4069
CG4080
TTLL15
CG4101
CG41128
CG41520
CR43080
CG4199
CG4213
CG42239
CG42258
CG42259
CG42268
CG42269
CG42319
CG42336
CG42359
CG42382
CG42390
CG42394
OtopLa
CG42514
Kmn2
Ubr3
CG42676
CG42700
CG42784
CG42806
CG42808
CG4287
CG4297
CG43091
CG43092
CG43093
CG4324
lncRNA:CR43266
CG43341
CG43366
CG4338
CG43448
CG43672
CG45050
CG43736
CG43759
CG43861
Fife
CG44006
Vti1b
PIG-K
CG44085
CG4452
CG4455
CG4497
CG4511
CG4537
TBC1D23
CG4592
CG4593
CG4607
CG4611
CG4622
CG4627
CG4629
CG4645
CG4658
MICU3
CG4676
CG4679
CG4686
ATPsynF
l(2)10685
CG4751
CG4789
CG4797
Pss
CG4842
CG4866
CG4942
CG4953
CG4962
Vps50
Chchd2
CG5013
CG5021
CG5028
CG5039
CG5065
CG5104
CG5112
CG5116
Charon
CG5126
CG5162
CG5172
CG5188
CG5191
CG5199
obe
CG5274
CG5339
CG5346
CG5355
CG5359
CG5397
GatB
CG5498
CG5500
CG5515
CG5532
CG5535
CG5554
CG5567
CG5597
Ufd4
hdly
CG5674
CG5676
CG5726
Snx17
CG5745
CG5746
CG5773
Pih1D1
CG5815
CG5823
CG5835
CG5853
CG5854
CG5862
CG5886
CG5973
CG6015
CG6040
CG6051
CG6115
CG6163
CG6171
CG6191
fand
CG6204
TAF1B
CG6388
CG6398
OXA1L
CG6409
CG6414
CG6424
CG6426
CG6443
CG6454
CG6479
FRG1
CG6565
Camp
CG6583
SCCRO4
CG6607
Hou
CG6621
CG6700
CG6712
CG6729
CG6739
CG6758
Prps
CG6834
CG6845
Grx1
CG6878
CG6891
CG6959
CG6974
CG7011
Usp12-46
CG7029
CG7054
CG7110
CG7120
CG7154
CRIF
CG7173
CG7183
CG7201
CG7214
CG7220
CG7222
CG7246
Nup93-2
CG7382
CG7402
SCCRO
CG7430
CG7453
CG7488
CG7536
CG7600
emei
CG7639
CG7646
CG7655
CG7656
CG7668
CG7675
CG7702
CG7706
pasi1
CG7720
CG7728
CG7739
CG7772
CG7778
CG7791
CG7824
l(2)k09848
pns
CG7857
CG7872
CG7888
CG7943
CG7991
CG8026
CG8066
CG8078
CG8097
pasi2
CG8134
CG8199
CG8202
Spt
CCT8
CG8312
CG8314
CG8321
CG8326
CG8336
CG8369
Tmem131
CG8372
Smyd4-4
CG8379
Ufc1
CG8389
CG8405
CG8420
CG8441
CG42837
CG44242
CG44243
TBC1D5
CG8461
CG8468
CG34134
Acbp1
CG8507
CG8531
CG8547
CG8578
CG8586
mrva
Rint1
CG8675
CG8677
CG8736
CG8740
CG8785
CG8788
CG8818
DUBAI
CG8925
CG8927
Slc25A46a
CG8939
wcy
CG8974
CG9004
CG9044
CG9062
CG9067
DENR
tfc
CG9143
CG9147
Herc4
CG9154
CG9170
CG9171
CG9175
CG9192
Coq3
CG9257
CG9286
Ing5
CG9297
CG9300
CG9328
CG9336
CG9338
CG9360
PIG-F
CG9393
CG9471
CG9586
CG9590
CG9593
CG9596
CG9628
CG9630
CG9662
kud
CG9686
CG9689
CG9691
Ibf2
CG9752
Panx
CG9782
CG9795
CG9815
CG9853
CG9855
Bacc
Had1
CG9915
CG9921
CG9922
CG9932
CG9951
CG9967
RtcB
snu
CG9992
CHKov1
lncRNA:CR34335
CR40502
CR40546
28SrRNA-Psi:CR40596
CR41540
18SrRNA:CR41548
CR41590
18SrRNA-Psi:CR41602
28SrRNA-Psi:CR41609
CR41619
lncRNA:CR42491
asRNA:CR42547
lncRNA:CR42549
CG43051
lncRNA:CR43241
lncRNA:CR43242
lncRNA:CR43264
lncRNA:CR43314
lncRNA:CR43334
lncRNA:CR43432
lncRNA:CR43459
lncRNA:CR43626
lncRNA:CR43650
lncRNA:CR43857
lncRNA:CR44042
Ca-beta
CanB
Capr
Df(3L)Cat
P{UAS-Parp.Cat.EYFP}
sv[spa-Cat]
Cep97
Cfp1
CheA7a
CkIIalpha-i3
slf
P{Csp[Clp]}
COX4
COX6B
Cog3
Cp110
Cpr12A
Cpr30F
Cpr47Ef
Cpr49Ae
Cpr49Ag
Cpr50Ca
Cpr50Cb
Cpr62Bb
Cpr64Aa
Cpr67B
Cpr76Bb
Cpr76Bc
Cpr76Bd
Cpr78E
Cpr92A
Cpr92F
Cpr97Ea
Cpr97Eb
crc
Cyp12e1
Cyp301a1
Cyp4e1
Cyp6a21
Cyp9c1
Cypl
Df(3L)HnD-1
anon-12Db
E(tkv)D1
P{eve-lacZ.D1}
mul[3]
mus301[D1]
Scm[D1]
vas[3]
E(tkv)D1[D1]
Mhc[D1]
eRF1[D1]
Gad1[E143K]
Desat1[1573-D1]
D12.A
l(1)ESHS22[1]
ras[l14]
D12.A[D12.A]
PolI
P{UAS-Dcr-2.D}
Den1
Der-1
Der-2
Dgp-1
Dic1
Dif
DIP1[EY02625]
Dl[1]
P{GawB}Dll[md23]
Dnz1
Doc1
Dok
Ugt36A1
Ts(YLt;3Lt)A109+Ts(YSt;3Rt)G144
Ts(YLt;3Lt)A154+Ts(YLt;3Rt)J17
Ts(YLt;3Lt)B155+Ts(YLt;3Rt)J17
Ts(YLt;3Rt)L132+Ts(YLt;3Lt)L136
Ts(YSt;3Lt)D85+Ts(YSt;3Rt)L136
Ts(YSt;3Rt)A109+Ts(YLt;3Lt)L136
Ts(YSt;3Rt)A109+Ts(YSt;3Lt)D85
Ts(YSt;3Rt)A154+Ts(YLt;3Lt)B155
Ts(YSt;3Rt)A154+Ts(YLt;3Lt)G144
Ts(YSt;3Rt)A154+Ts(YSt;3Lt)L132
Ts(YSt;3Rt)B155+Ts(YLt;3Lt)G144
Ts(YSt;3Rt)B155+Ts(YSt;3Lt)L132
Ts(YSt;3Rt)G144+Ts(YLt;3Lt)L136
Ts(YSt;3Rt)G144+Ts(YSt;3Lt)L132
Dr[1]
Dpit47
DppIII
Rsp
E(Pc)[1]
E(spl)m8-HLH
l(3)93Dl
l(3)93Dl[E23]
Rel[E23]
P{GAL4}E23
P{E5-EGFP}
mRRF2
Edem2
eEF1beta
eEF1gamma
eEF2
Efr
Eip63F-1
EndoGI
Ent1
Esyt2
FLASH
Fem-1
Fip1
Fs(2)M
Adh[Fs]
Fs(2)M[1]
FucT6
GAPsec
Galphaq
Gapdh2
Gas41
DCTN1-p150[1]
Gyg
P{UAS-Gprk2.Cb}
Grip128
Grip71
GstD9
Ts(YLt;2Rt)A62+Ts(YLt;2Lt)B214
l(3)68Ac
l(2)46Ej
RFeSP
H[1]
l(3)84Eg[1]
Hsp23[H]
w[hdrvH]
HBS1
HP4
HP5
HDAC3
HipHop
Hmr[1]
rbl
Hpr1
Hr3
Hs2st
Hsp70Bb
P{C15.I-2.hs43-lacZ}
Ide
CG11110
ImpE1
ImpE3
Indy
Ing3
eIF3e
Invadolysin
Jwa
Karybeta3
Kebab
Lar
larv
Lar[unspecified]
Larp7
Lasp
M6-ML
l(1)MZ6
P{su(Hw).M6}
br[2Bab-10]
l(1)MZ6[1]
Nopp140[M6]
P{UASp-Lgr3.G}M6
MED24
MP1
RNaseMRP:RNA
MSBP
Mad[1]
Mat89Ba
Mcm10
Mctp
Mdh1
P{GAL4-Mef2.R}
Metatarsi-irregular
Met[1]
Mf
Dr[Mio]
Mlp84B
Mms19
Mob2
Mpp6
Mst85C
MtnA
Mtr3
Myb
Mys45A
l(2)28Bb
Dl::N
P{y.N.TARG}
P{GFP-asp.N}
N[Hsp70Bb.PL]
w[hdrvN]
hiw[ND42]
NLaz
Naa60
Nacalpha
Nap1
Ndg
Nep4
Ts(1Lt;YSt)B118+Ts(1Rt;YLt)T9
Df(1)NP5
Df(1)NetAB[Delta]
Nhe2
Nnp-1
Nop17l
Nop56
Np[1]
Ntmt
Nup107
Nup205
ORMDL
Oatp30B
Oatp74D
Obp19b
Obp56a
Obp57c
Obp57a
Obp99b
Or43b[1]
Osbp
Osi9
Df(2R)P32a
P{ft.P32.V5}
Mtr4[2]
P{UAS-PGRP-LC.x}
PBac{681.P.FSVS-1}PH4alphaEFB[CPTI002064]
PRL-1
P{UAS-PRL-1.P}
Pa1
Paip2
Pat1
Pen
Pepck1
Phax
Piezo
Poc1
Ppn
Psc[1]
Psf3
Ptpa
Pxn
Dp(1;f)R
In(3R)Antp[R]
l(2)46Eh
ninaE
Rst(2)Lb[R]
Rst(2)At[R]
RpLP1
Rac2[Delta]
Rbcn-3B
Rbm13
Rcd1
Rcd2
Rcd4
Rcd6
Rcd7
Ref1
Reg-5
Reps
RfC38
RfC4
Rich
RluA-1
Roc2
Roc1b
RpI1
RpII18
RpIII128
mRpL10
RpL12
RpL13
RpL13A
RpL15
RpL18A
RpL21
M(2)59B
mRpL24
RpL24-like
RpL26
RpL27
RpL27A
RpL29
RpL3
RpL34b
RpL35
RpL37A
RpL37a
RpL38
RpL4
RpL7-like
RpL7A
RpL9
RpS11
RpS12
RpS14a
RpS18
M(2)56F
RpS21
RpS25
RpS3A
RpS7
mRpS7
RpS8
Rpb11
Rrp42
Rrp47
Rtnl1
Df(2L)S2
l(2)46Ei
P{Sur.En3.S-LacZ}
Adh[S]
alpha-Est5[S]
Gpdh1[B]
Idh[S]
S[1]
Sod1[S]
Aldox89A[S]
Est-6[S]
Mdh1[S]
Acph-1[S]
Rst(2)Lb[S]
Pgd[S]
Rst(2)At[S]
SF-1
P{CaSpeR.SF1}
PolG2[1]
SF-1[2.3]
l(2)34Db[1]
SIDL
SKIP
SP1173
Saf6
SamDC
Samuel
Sap130
Sb[1]
Sema2b
-
Sesn
Sgf11
Sh3beta
Sirt4
Ski6
Slc45-1
Slimp
Sln
alphaSnap
Snm1
Sod3
Spase12
Spase22-23
Spase25
SpdS
Spn
Spn43Ad
Spn85F
Spn88Eb
SppL
Spt-I
Spt20
Srp68
Sry-alpha
Sry-beta
Sse
Su(H)[1]
Su(var)205[1]
Su(var)3-7[1]
Su(var)3-9
Su(z)12[1]
SuUR
SuUR[ES]
Sugb
P{UAS-TBPH.R}
Serinc
TRAM
Tak1[1]
Tango4
Df(2L)Tep2-Tep3
In(2L)Tg
dpp[Tg]
Tgt
Tim17b
Tina-1
P{UAS-Tom.L}
Trax
Trp1
Tsp42Ea
Tsp42Ef
Tsp42Eg
Tsp42Eh
Tsp42El
U3-55K
Uba3
Ubc2
Ubx[1]
Ubx[1:Cbx-1]
Uhg2
Unc-115a
Unc-76
Vdup1
Vha14-1
Vha44
ATP6AP2
T(3;4)Antp[W]
l(2)46Eg
hid
Scr[W]
Xe7
Yeti
Zasp66
Zpr1
Reepl1
PL(3)sp-W1
l(3)68Aa[1]
l(3)68Ab[1]
l(3)68Ad[1]
l(3)68Ac[1]
l(3)68Ae[1]
l(3)68Bd[1]
l(3)68Bg[1]
l(3)68Bb[1]
l(3)68Ba[1]
l(3)68Bc[1]
l(3)68Cb[1]
l(3)68Cc[1]
mei-9[a]
a6
l(2)24Dd[1]
abo[1]
Adat1
P{UASp-alpha-Cat.D}
alpha-Est3
alpha-Man-IIa
alpha-Man-IIb
alphaTub84B
lncRNA:alphagamma-element:CR32865
alt
ana2
ana3
P{GawB}ap[md544]
Apart
P{GAL4-arm.S}
asp[1]
ast[1]
asun[f02815]
atilla
ave
C(2L)RM-P1
PL(3)sp-W2
anon-4Cd
b[1]
l(3)68Aa[2]
l(3)68Ab[2]
l(3)68Ad[2]
l(3)68Ag[2]
l(3)68Ac[2]
l(3)68Ae[2]
l(3)68Bd[2]
l(3)68Bg[2]
l(3)68Bb[2]
l(3)68Ba[2]
l(3)68Bf[2]
l(3)68Cb[2]
bai
bai[1]
bcn92
bdg
tu(3)be
beg
beta4GalNAcTB
bi[1]
bic[1]
bip1
Bl
blot
blue
bnb
boi
bonsai
P{brk.498-lacZ}
bv
bur[1]
ca[1]
ca[unspecified]
Df(1)BSC759
ms(2)05704
cer
cerv
chas
ci[1]
ckn
clu
cmp
cm[unspecified]
cold
comm2
corn
P{PT1}cpx[21]
crc[1]
crl
crm[1]
crok
ct[1]
cu[1]
cv
C(1;Y)11
P{U6:3-tRNA[His]-gRNA[y,cv,v,f,car]}
P{U6:3-tRNA[His]-gRNA[y,cv,v,f,car]}attP40
l(3)68Aa[4]
l(3)68Ab[4]
l(3)68Ad[4]
l(3)68Ag[4]
l(3)68Bd[4]
l(3)68Bb[4]
dUTPase
P{GAL4-da.G32}
P{da-GAL4.U}
da[1]
dikar[E3145]
dpl
P{hb[Delta.dlg1]}
dimorphos
dmt
dod
C(2L)RM-P2
dpy[ov1]
P{GAL4-dpp.blk1}
dsh[1]
dsx[1]
dwg[1]
dx[1]
l(3)68Aa[5]
l(3)68Bd[5]
l(3)68Bb[5]
eIF3d1
eIF3c
eIF5
eIF6
ec
P{elav-GAL4.U}
P{GAL4-elav.L}
P{PT1}elav[95]
P{GawB}elav[C155]
elgi
P{en-GAL4.U}
esg
Exo70
eyg
f-cup
fabp
fau
foi[neo13]
fon
fru[1]
fs(1)K10[1]
fs(1)K10[unspecified]
fs(2)ltoPP43[PP43]
fwd[3]
fy[1]
Df(3L)fz-GF3b
Df(3L)fz-GS1a
g[1]
g[X]
l(3)68Aa[7]
l(3)68Bb[7]
gb
gem
dally[gem]
Sec24CD
geko
glec
gloin
E(spl)m8-HLH[r26]
gro[1]
l(3)68Aa[8]
l(3)68Bb[8]
P{GAL4}h[H10]
hd
Hdc
hoip
P{GawB}how[24B]
icln
ics
ics[BG02577]
jagn
kdn[PC64]
P{UAS-kek5.GFP}
ken[1]
kn[1]
knk
ko
ksh
l(1)G0004[G0004]
l(1)G0007[G0007]
l(1)G0020
l(1)G0020[G0020]
Pop1[G0045]
MagR[G0136]
Cdc7[G0148]
Idh3a
Idh3a[G0156]
l(1)G0193[G0193]
l(1)G0196[G0196]
Ankle2[G0222]
ATPsyndelta
ATPsyndelta[G0230]
Ptpmeg2[G0232]
Fum1[G0255]
l(1)G0289[G0289]
l(1)G0320[G0320]
Pdha[G0334]
l(1)G0469[G0469]
l(2)01289
l(2)01289[01289]
Phb2[03709]
l(2)05714
l(2)05714[05714]
ATPsynG[06225]
DCTN3-p24
DCTN3-p24[06496]
P{PZ}DCTN3-p24[06496]
MFS14[08717]
l(2)09851[09851]
l(2)34Fc
l(2)34Fd
THG
Rnmt
Mtr4
ND-B17
l(2)37Cg
ft[9]
Df(2R)k08901
l(2)k01209[k01209]
l(2)k05819
l(2)k09022
l(2)k09022[k09022]
l(2)k09913[k09913]
Dad1[k12914]
l(2)k14505[k14505]
Ttc7[k14710]
sau
sau[s5379]
Pfdn2[01239]
l(3)02640[02640]
Chchd3[03670]
l(3)04053[04053]
l(3)07882[07882]
Ltn1
l(3)L1231[L1231]
vers
vers[j2D3]
l(3)mbn[1]
ND-SGDH[1]
l(3)neo38[1]
l(3)psg2
stw
lackluster
lackluster[1]
lap[1]
lawc
lncRNA:let7C
mir-let7
lt[1]
lt[unspecified]
lva
mRpL1
mRpL17
mRpL18
mRpL23
mRpL27
mRpL30
mRpL33
mRpL34
mRpL38
mRpL39
mRpL42
mRpL44
mRpL46
mRpL48
mRpL52
mRpS10
mRpS11
mRpS25
mRpS26
mRpS30
mRpS31
mRpS35
mRpS6
mRpS9
mal[unspecified]
myoblast-specific
mbm
mei-41[1]
mei-41[unspecified]
mei-P26[1]
mgr
mog
mir-2492
mir-998
Zw10[5]
mle[1]
mmy
rsd
mrt
msb1l
msd1
msd5
msl-1[1]
msl-2[1]
msl-3[2]
msl-3[unspecified]
anon-25D26Ab
SmydA-8
mtSSB
mth[1]
P{TRiP.JF02805}
mudl
mwh[1]
P{nSyb-GAL4.S}
nAChRbeta3
na[1]
ncd[1]
ncd[2]
ncm
neo
nero
NimA
NimC3
nocte[1]
nod
Khc::nod
noi
nompB
nopo
nord[1]
P{nrv2-GAL4.S}
Ns2
nwk[1]
nyo
omd
mbmC
opa-e
oculus-parvus
oculi-rugosissimi
or[1]
Df(1)os[1]
osp
p
p[unspecified]
p47
CG42383
parvin
pelo
peo
pyg
P{GAL4-per.BS}
Pgant8
pico
pim
pinta
pinta[1]
pio
ple[1]
pn[unspecified]
SclA
SclB
hpRNA:CR33940
P{pnr-GAL4.U}
P{GawB}pnr[MD237]
pot
pr[unspecified]
prel
prod
prod[k08810]
promL
psidin
pst
ptc[su53]
P{GawB}ptc[559.1]
CG2841
puc[unspecified]
pwn
pwn[unspecified]
px
px[1]
qvr[1]
r2d2
rad50
ras[unspecified]
rb[unspecified]
rg
Rho1[unspecified]
rho-6
rigel
rk[1]
rn[1]
rngo
roX1-CES
rod
rogdi[1]
rost
rtet
rtv
P{rib7}
ry[unspecified]
sano
sas
sbr[1]
scramb2
scyl
sprd
sds22
Sec24AB
Sec3
Sec63
sha
sif
sky
slo[1]
slow
sls[1]
smk
smk[1]
Dyrk2[1]
snoRNA:Or-CD2
snoRNA:Psi28S-2622
spd-2
P{UAS-DsRed.mir-bft.sponge}
Sb[Spi]
Fas2[spin]
spoon[1]
ssp3
Df(1)sta
Hsp83[08445]
ste14
aub[sting-1]
stumps
su(f)[1]
Su(S)
C(1;Y)12
sun
fs(2)sun
Df(1)svr
t
tardiness
tardiness[t]
tamo
Tnks
tay
tefu[1]
tex
Diap1[1]
thoc6
tinc
toc
tra[1]
tra2[1]
trbd
trsn
P{GawB}tsh[md621]
P{tubP-GAL4}
tun
tw[unspecified]
P{GAL4-twi.G}
P{TRiP.JF03141}
tyn
uex[1]
unc-45
und
up[1]
P{SUPor-P}verm[KG07819]
vg[1]
viaf
vib
vig2
vih
vsg
wac
wbl
P{TRiP.HM05150}
P{GAL4-wg.M}
wge
wls
wmd
norpA[35]
yellow-b
yellow-c
yellow-d2
yuri
zye
