﻿Query Symbol,BL #,TRiP #,CG #,FBgn,Vector,Hairpin Loc.
x,No matching stocks found.,,,,,
140up,No matching stocks found.,,,,,
18w,30498,HM05241,CG8896,FBgn0004364,VALIUM10,attP2
mir-312,No matching stocks found.,,,,,
Nsf2[lotus-312],No matching stocks found.,,,,,
A16,No matching stocks found.,,,,,
Df(2L)pr-A16,No matching stocks found.,,,,,
P{Adh-lacZ.mut.Adh-lacZ.wt.loxP.FRT}A16,No matching stocks found.,,,,,
AIF,No matching stocks found.,,,,,
AP-2sigma[KG02457],No matching stocks found.,,,,,
ATPsynbeta,No matching stocks found.,,,,,
AlaRS,No matching stocks found.,,,,,
ArgRS,No matching stocks found.,,,,,
CysRS,No matching stocks found.,,,,,
GlnRS,No matching stocks found.,,,,,
GluProRS,No matching stocks found.,,,,,
HisRS,No matching stocks found.,,,,,
TrpRS,No matching stocks found.,,,,,
Ac76E,No matching stocks found.,,,,,
P{hb[Delta.Ace]},No matching stocks found.,,,,,
P{UAS-Ack.S},No matching stocks found.,,,,,
Acp1,No matching stocks found.,,,,,
Acp65Aa,No matching stocks found.,,,,,
Acph-1,No matching stocks found.,,,,,
P{Act5C-GAL4.U},No matching stocks found.,,,,,
Ada2a,No matching stocks found.,,,,,
eIF3j,No matching stocks found.,,,,,
Ak2,No matching stocks found.,,,,,
Afti,No matching stocks found.,,,,,
P{UAS-Akt1.HA},No matching stocks found.,,,,,
Mps1,No matching stocks found.,,,,,
Alg-2,No matching stocks found.,,,,,
Datp,No matching stocks found.,,,,,
Arf79F,No matching stocks found.,,,,,
Arpc3A,No matching stocks found.,,,,,
Ars-region2,No matching stocks found.,,,,,
Asph,No matching stocks found.,,,,,
Atox1,No matching stocks found.,,,,,
Atpalpha[01453a],No matching stocks found.,,,,,
Atu,No matching stocks found.,,,,,
Axud1,No matching stocks found.,,,,,
T(Y;2)B4,No matching stocks found.,,,,,
Tp(1;Y)B4,No matching stocks found.,,,,,
P{AP-2-lacZ.B4},No matching stocks found.,,,,,
P{UAS-VGlut.B4.GFP},No matching stocks found.,,,,,
P{B4-EGFP},No matching stocks found.,,,,,
l(1)9Fl[B4],No matching stocks found.,,,,,
T(1;Y)B52,No matching stocks found.,,,,,
Su(rst)B52,No matching stocks found.,,,,,
P{UAS-VGlut.B52.GFP},No matching stocks found.,,,,,
Su(rst)B52[B52],No matching stocks found.,,,,,
BI-1,No matching stocks found.,,,,,
Bet3,No matching stocks found.,,,,,
CAHbeta,No matching stocks found.,,,,,
CG10026,No matching stocks found.,,,,,
CG10053,No matching stocks found.,,,,,
CG10055,No matching stocks found.,,,,,
CG10098,No matching stocks found.,,,,,
CG10139,No matching stocks found.,,,,,
Vps8,No matching stocks found.,,,,,
CG10175,No matching stocks found.,,,,,
grnd,No matching stocks found.,,,,,
udt,No matching stocks found.,,,,,
CG10237,No matching stocks found.,,,,,
Kank,No matching stocks found.,,,,,
CG10283,No matching stocks found.,,,,,
CG10337,No matching stocks found.,,,,,
CG10345,No matching stocks found.,,,,,
CG10353,No matching stocks found.,,,,,
Naxd,No matching stocks found.,,,,,
CG10428,No matching stocks found.,,,,,
CG10435,No matching stocks found.,,,,,
CG10492,No matching stocks found.,,,,,
CG10494,No matching stocks found.,,,,,
CG10512,No matching stocks found.,,,,,
CG10527,No matching stocks found.,,,,,
CG10657,No matching stocks found.,,,,,
CG10674,No matching stocks found.,,,,,
cmb,No matching stocks found.,,,,,
CG10737,No matching stocks found.,,,,,
daed,No matching stocks found.,,,,,
CG10936,No matching stocks found.,,,,,
CG10970,No matching stocks found.,,,,,
CG10973,No matching stocks found.,,,,,
CG10984,No matching stocks found.,,,,,
CG11007,No matching stocks found.,,,,,
CG1103,No matching stocks found.,,,,,
Ube4A,No matching stocks found.,,,,,
CG11073,No matching stocks found.,,,,,
Wdr33,No matching stocks found.,,,,,
Mink,No matching stocks found.,,,,,
CG11127,No matching stocks found.,,,,,
Pits,No matching stocks found.,,,,,
CG11168,No matching stocks found.,,,,,
CG11170,No matching stocks found.,,,,,
CG11178,No matching stocks found.,,,,,
CG11200,No matching stocks found.,,,,,
Tmem63,No matching stocks found.,,,,,
Alg11,No matching stocks found.,,,,,
CG11307,No matching stocks found.,,,,,
CG11309,No matching stocks found.,,,,,
LUBEL,No matching stocks found.,,,,,
CG11334,No matching stocks found.,,,,,
CG11357,No matching stocks found.,,,,,
CG1136,No matching stocks found.,,,,,
CG11367,No matching stocks found.,,,,,
CG32454,No matching stocks found.,,,,,
CG11396,No matching stocks found.,,,,,
Pcif1,No matching stocks found.,,,,,
CG11454,No matching stocks found.,,,,,
CG1146,No matching stocks found.,,,,,
CG11562,No matching stocks found.,,,,,
CNPYb,No matching stocks found.,,,,,
CG11583,No matching stocks found.,,,,,
CG11586,No matching stocks found.,,,,,
CG11590,No matching stocks found.,,,,,
CG11596,No matching stocks found.,,,,,
CG1161,No matching stocks found.,,,,,
CG11686,No matching stocks found.,,,,,
CG11696,No matching stocks found.,,,,,
CG11699,No matching stocks found.,,,,,
CG11755,No matching stocks found.,,,,,
CG11771,No matching stocks found.,,,,,
EMC6,No matching stocks found.,,,,,
CG11790,No matching stocks found.,,,,,
CG11808,No matching stocks found.,,,,,
CG11858,No matching stocks found.,,,,,
RIOK2,No matching stocks found.,,,,,
CG11885,No matching stocks found.,,,,,
CG11905,No matching stocks found.,,,,,
Mon1,No matching stocks found.,,,,,
CG11980,No matching stocks found.,,,,,
Iru,No matching stocks found.,,,,,
CG12024,No matching stocks found.,,,,,
CG12025,No matching stocks found.,,,,,
CG12096,No matching stocks found.,,,,,
CG12099,No matching stocks found.,,,,,
CG12159,No matching stocks found.,,,,,
CG33293,No matching stocks found.,,,,,
CG12179,No matching stocks found.,,,,,
red,No matching stocks found.,,,,,
mlt,No matching stocks found.,,,,,
CG12224,No matching stocks found.,,,,,
CG12253,No matching stocks found.,,,,,
AIMP2,No matching stocks found.,,,,,
CG12316,No matching stocks found.,,,,,
CG12320,No matching stocks found.,,,,,
CG12321,No matching stocks found.,,,,,
CG12325,No matching stocks found.,,,,,
CG46280,No matching stocks found.,,,,,
CG46281,No matching stocks found.,,,,,
ND-B14.5B,No matching stocks found.,,,,,
CG12483,No matching stocks found.,,,,,
CG12499,No matching stocks found.,,,,,
CG12547,No matching stocks found.,,,,,
CG12581,No matching stocks found.,,,,,
CG12608,No matching stocks found.,,,,,
CG12643,No matching stocks found.,,,,,
CG1265,No matching stocks found.,,,,,
CG12702,No matching stocks found.,,,,,
CG12730,No matching stocks found.,,,,,
CG1275,No matching stocks found.,,,,,
CG12811,No matching stocks found.,,,,,
CG12814,No matching stocks found.,,,,,
ND-B15,No matching stocks found.,,,,,
CG12863,No matching stocks found.,,,,,
CG12880,No matching stocks found.,,,,,
CG12935,No matching stocks found.,,,,,
CG12947,No matching stocks found.,,,,,
CG12948,No matching stocks found.,,,,,
Trmt112,No matching stocks found.,,,,,
CG12991,No matching stocks found.,,,,,
CG12998,No matching stocks found.,,,,,
CG13003,No matching stocks found.,,,,,
CG13004,No matching stocks found.,,,,,
CG13012,No matching stocks found.,,,,,
CG13014,No matching stocks found.,,,,,
CG13024,No matching stocks found.,,,,,
CG13043,No matching stocks found.,,,,,
CG13053,No matching stocks found.,,,,,
CG13062,No matching stocks found.,,,,,
CG13065,No matching stocks found.,,,,,
CG1307,No matching stocks found.,,,,,
CG13082,No matching stocks found.,,,,,
CG1309,No matching stocks found.,,,,,
CG13097,No matching stocks found.,,,,,
CG13101,No matching stocks found.,,,,,
CG13116,No matching stocks found.,,,,,
CG13124,No matching stocks found.,,,,,
CG13231,No matching stocks found.,,,,,
CG13255,No matching stocks found.,,,,,
CG13272,No matching stocks found.,,,,,
CG13295,No matching stocks found.,,,,,
CG13314,No matching stocks found.,,,,,
SCCRO3,No matching stocks found.,,,,,
CG13364,No matching stocks found.,,,,,
CG13365,No matching stocks found.,,,,,
CG13428,No matching stocks found.,,,,,
CG13516,No matching stocks found.,,,,,
CG13599,No matching stocks found.,,,,,
CG13601,No matching stocks found.,,,,,
CG13606,No matching stocks found.,,,,,
CG13631,No matching stocks found.,,,,,
CG13663,No matching stocks found.,,,,,
CG13671,No matching stocks found.,,,,,
CG13689,No matching stocks found.,,,,,
CG13698,No matching stocks found.,,,,,
CG1371,No matching stocks found.,,,,,
CG13721,No matching stocks found.,,,,,
CG13722,No matching stocks found.,,,,,
CG13731,No matching stocks found.,,,,,
CG13742,No matching stocks found.,,,,,
CG13760,No matching stocks found.,,,,,
CG13833,No matching stocks found.,,,,,
CG13868,No matching stocks found.,,,,,
CG13893,No matching stocks found.,,,,,
CG13895,No matching stocks found.,,,,,
CG13896,No matching stocks found.,,,,,
Sf3b3,No matching stocks found.,,,,,
CG13907,No matching stocks found.,,,,,
CG13926,No matching stocks found.,,,,,
CG13933,No matching stocks found.,,,,,
SWIP,No matching stocks found.,,,,,
CG13994,No matching stocks found.,,,,,
senju,No matching stocks found.,,,,,
CG14100,No matching stocks found.,,,,,
CG34116,No matching stocks found.,,,,,
CG14109,No matching stocks found.,,,,,
CG14135,No matching stocks found.,,,,,
CG14182,No matching stocks found.,,,,,
CG14218,No matching stocks found.,,,,,
CG14223,No matching stocks found.,,,,,
CG14232,No matching stocks found.,,,,,
CG14253,No matching stocks found.,,,,,
CG14257,No matching stocks found.,,,,,
CG14286,No matching stocks found.,,,,,
CG14314,No matching stocks found.,,,,,
CG1434,No matching stocks found.,,,,,
side-IV,No matching stocks found.,,,,,
CG1441,No matching stocks found.,,,,,
CG14435,No matching stocks found.,,,,,
sov,57558,HMC04875,CG14438,FBgn0286831,VALIUM20,attP40
CG14439,No matching stocks found.,,,,,
CG14440,No matching stocks found.,,,,,
CG14442,No matching stocks found.,,,,,
CG14445,No matching stocks found.,,,,,
CG14464,No matching stocks found.,,,,,
CG14480,No matching stocks found.,,,,,
CG14483,No matching stocks found.,,,,,
jus,No matching stocks found.,,,,,
CG14543,No matching stocks found.,,,,,
CG14544,No matching stocks found.,,,,,
CG14561,No matching stocks found.,,,,,
CG14566,No matching stocks found.,,,,,
thw,No matching stocks found.,,,,,
wap,No matching stocks found.,,,,,
Usp2,No matching stocks found.,,,,,
CG14621,No matching stocks found.,,,,,
CG14626,No matching stocks found.,,,,,
CG14646,No matching stocks found.,,,,,
CG14661,No matching stocks found.,,,,,
CG14696,No matching stocks found.,,,,,
CG14722,No matching stocks found.,,,,,
CG14770,No matching stocks found.,,,,,
CG1486,No matching stocks found.,,,,,
Sdhaf3,No matching stocks found.,,,,,
CG14961,No matching stocks found.,,,,,
CG14969,No matching stocks found.,,,,,
CG14971,No matching stocks found.,,,,,
CG14984,No matching stocks found.,,,,,
CG14985,No matching stocks found.,,,,,
CG15019,No matching stocks found.,,,,,
CG15027,No matching stocks found.,,,,,
CG15080,No matching stocks found.,,,,,
CG15099,No matching stocks found.,,,,,
CG1513,No matching stocks found.,,,,,
CG15160,No matching stocks found.,,,,,
EMC5,No matching stocks found.,,,,,
CG15211,No matching stocks found.,,,,,
CG1523,No matching stocks found.,,,,,
CG15249,No matching stocks found.,,,,,
CG15282,No matching stocks found.,,,,,
CG15353,No matching stocks found.,,,,,
CG1542,No matching stocks found.,,,,,
CG15445,No matching stocks found.,,,,,
CG15465,No matching stocks found.,,,,,
TTLL12,No matching stocks found.,,,,,
CG15535,No matching stocks found.,,,,,
CG15601,No matching stocks found.,,,,,
CG15602,No matching stocks found.,,,,,
THADA,No matching stocks found.,,,,,
tank,No matching stocks found.,,,,,
CG15643,No matching stocks found.,,,,,
CG15674,No matching stocks found.,,,,,
CG15717,No matching stocks found.,,,,,
CG15814,No matching stocks found.,,,,,
CG15822,No matching stocks found.,,,,,
CG15877,No matching stocks found.,,,,,
mldr,No matching stocks found.,,,,,
CG15905,No matching stocks found.,,,,,
CG1620,No matching stocks found.,,,,,
CG1635,No matching stocks found.,,,,,
CG1646,No matching stocks found.,,,,,
CG1648,No matching stocks found.,,,,,
CG16711,No matching stocks found.,,,,,
CG16717,No matching stocks found.,,,,,
subdued,No matching stocks found.,,,,,
CG16721,No matching stocks found.,,,,,
CG16753,No matching stocks found.,,,,,
CG16786,No matching stocks found.,,,,,
CG16787,No matching stocks found.,,,,,
TTLL4A,No matching stocks found.,,,,,
CG16865,No matching stocks found.,,,,,
Vajk3,No matching stocks found.,,,,,
Vajk2,No matching stocks found.,,,,,
Vajk1,No matching stocks found.,,,,,
CG16896,No matching stocks found.,,,,,
CG16953,No matching stocks found.,,,,,
CG16959,No matching stocks found.,,,,,
CG16972,No matching stocks found.,,,,,
CG16979,No matching stocks found.,,,,,
CG1698,No matching stocks found.,,,,,
CG17032,No matching stocks found.,,,,,
CG17059,No matching stocks found.,,,,,
conu,No matching stocks found.,,,,,
CG17119,No matching stocks found.,,,,,
CG17124,No matching stocks found.,,,,,
CG17163,No matching stocks found.,,,,,
Arfip,No matching stocks found.,,,,,
CG17211,No matching stocks found.,,,,,
CG17272,No matching stocks found.,,,,,
Bdbt,No matching stocks found.,,,,,
CG17298,No matching stocks found.,,,,,
Cndp2,62263,HMC05270,CG17337,FBgn0259979,VALIUM20,attP40
CG17343,No matching stocks found.,,,,,
CG1737,No matching stocks found.,,,,,
CG17490,No matching stocks found.,,,,,
CG17508,No matching stocks found.,,,,,
CG17549,No matching stocks found.,,,,,
EMC2A,No matching stocks found.,,,,,
CG17574,No matching stocks found.,,,,,
CG17600,No matching stocks found.,,,,,
CG1764,No matching stocks found.,,,,,
EMRE,No matching stocks found.,,,,,
CG17683,No matching stocks found.,,,,,
CG17712,No matching stocks found.,,,,,
CG17721,No matching stocks found.,,,,,
CG17734,No matching stocks found.,,,,,
CG17765,No matching stocks found.,,,,,
CG17776,No matching stocks found.,,,,,
CG17777,No matching stocks found.,,,,,
CG17786,No matching stocks found.,,,,,
CG17834,No matching stocks found.,,,,,
CG17839,No matching stocks found.,,,,,
CG1785,No matching stocks found.,,,,,
CG17883,No matching stocks found.,,,,,
CG17904,No matching stocks found.,,,,,
CG17982,No matching stocks found.,,,,,
CG18004,No matching stocks found.,,,,,
CG18048,No matching stocks found.,,,,,
CG18081,No matching stocks found.,,,,,
CG1814,No matching stocks found.,,,,,
CG18171,No matching stocks found.,,,,,
CG1824,No matching stocks found.,,,,,
udd,No matching stocks found.,,,,,
Rim2,No matching stocks found.,,,,,
CG18428,No matching stocks found.,,,,,
AOX1,No matching stocks found.,,,,,
CG18622,No matching stocks found.,,,,,
ND-MNLL,No matching stocks found.,,,,,
CG18661,No matching stocks found.,,,,,
CG18731,No matching stocks found.,,,,,
CG18870,No matching stocks found.,,,,,
CG1888,No matching stocks found.,,,,,
CG1927,No matching stocks found.,,,,,
CG1941,No matching stocks found.,,,,,
CG1943,No matching stocks found.,,,,,
CG2004,No matching stocks found.,,,,,
CG2017,No matching stocks found.,,,,,
PSMG1,No matching stocks found.,,,,,
CG2061,No matching stocks found.,,,,,
CG2076,No matching stocks found.,,,,,
CG2150,No matching stocks found.,,,,,
CG2157,No matching stocks found.,,,,,
CG2162,No matching stocks found.,,,,,
CG2182,No matching stocks found.,,,,,
Gasz,No matching stocks found.,,,,,
CG2211,No matching stocks found.,,,,,
CG2260,No matching stocks found.,,,,,
CG2277,No matching stocks found.,,,,,
CG2310,No matching stocks found.,,,,,
CG2321,No matching stocks found.,,,,,
CG2519,No matching stocks found.,,,,,
CG2608,No matching stocks found.,,,,,
CG2662,No matching stocks found.,,,,,
CG2663,No matching stocks found.,,,,,
CG2691,No matching stocks found.,,,,,
CG2698,No matching stocks found.,,,,,
CG2812,No matching stocks found.,,,,,
snsl,No matching stocks found.,,,,,
Stoml2,No matching stocks found.,,,,,
CG2972,No matching stocks found.,,,,,
Naxe,No matching stocks found.,,,,,
CG2991,No matching stocks found.,,,,,
CG30001,No matching stocks found.,,,,,
CG30094,No matching stocks found.,,,,,
CG30109,No matching stocks found.,,,,,
CG30116,No matching stocks found.,,,,,
Usp30,No matching stocks found.,,,,,
AIMP3,No matching stocks found.,,,,,
CG44253,No matching stocks found.,,,,,
CG30195,No matching stocks found.,,,,,
CG30349,No matching stocks found.,,,,,
CG30380,No matching stocks found.,,,,,
PIG-X,No matching stocks found.,,,,,
CG30389,No matching stocks found.,,,,,
CG30394,No matching stocks found.,,,,,
CG3045,No matching stocks found.,,,,,
CG46491,31208,JF01726,CG30456,FBgn0050456,VALIUM1,attP2
CG46491,34380,HMS01370,CG30456,FBgn0050456,VALIUM20,attP2
CG46492,31208,JF01726,CG30456,FBgn0050456,VALIUM1,attP2
CG46492,34380,HMS01370,CG30456,FBgn0050456,VALIUM20,attP2
CG30460,No matching stocks found.,,,,,
CG3071,No matching stocks found.,,,,,
CG31028,No matching stocks found.,,,,,
CG3104,No matching stocks found.,,,,,
CG3107,No matching stocks found.,,,,,
CG31125,No matching stocks found.,,,,,
CG31142,No matching stocks found.,,,,,
CG31145,No matching stocks found.,,,,,
CG31211,No matching stocks found.,,,,,
CG31249,No matching stocks found.,,,,,
CG31313,No matching stocks found.,,,,,
CG31342,No matching stocks found.,,,,,
CG31460,No matching stocks found.,,,,,
CG31475,No matching stocks found.,,,,,
CG31510,No matching stocks found.,,,,,
NKCC,No matching stocks found.,,,,,
CG31550,No matching stocks found.,,,,,
CG3156,No matching stocks found.,,,,,
CG31633,No matching stocks found.,,,,,
CG31635,No matching stocks found.,,,,,
CG31638,No matching stocks found.,,,,,
CG3165,No matching stocks found.,,,,,
CG31650,No matching stocks found.,,,,,
CG31687,No matching stocks found.,,,,,
CG31688,No matching stocks found.,,,,,
CG31712,No matching stocks found.,,,,,
CG31715,No matching stocks found.,,,,,
CG31800,No matching stocks found.,,,,,
CG31815,No matching stocks found.,,,,,
CG31904,No matching stocks found.,,,,,
CG31908,No matching stocks found.,,,,,
ND-ASHI,No matching stocks found.,,,,,
CG31922,No matching stocks found.,,,,,
CG31937,No matching stocks found.,,,,,
CG31957,No matching stocks found.,,,,,
CG44838,No matching stocks found.,,,,,
CG32066,No matching stocks found.,,,,,
CG32075,No matching stocks found.,,,,,
CG32100,No matching stocks found.,,,,,
lncRNA:CR32111,No matching stocks found.,,,,,
CG32137,No matching stocks found.,,,,,
CG32147,No matching stocks found.,,,,,
Arts,No matching stocks found.,,,,,
CG32170,No matching stocks found.,,,,,
CG32191,No matching stocks found.,,,,,
CG3224,No matching stocks found.,,,,,
PMP34,No matching stocks found.,,,,,
CG32267,No matching stocks found.,,,,,
CG32278,No matching stocks found.,,,,,
CG32280,No matching stocks found.,,,,,
Vps11,No matching stocks found.,,,,,
CG32373,No matching stocks found.,,,,,
CG32409,No matching stocks found.,,,,,
EMC10,No matching stocks found.,,,,,
Arv1,No matching stocks found.,,,,,
CG32448,No matching stocks found.,,,,,
CG32485,No matching stocks found.,,,,,
CG32521,No matching stocks found.,,,,,
CG32537,No matching stocks found.,,,,,
CG32563,No matching stocks found.,,,,,
CG32590,No matching stocks found.,,,,,
CG32638,No matching stocks found.,,,,,
CG32645,No matching stocks found.,,,,,
stx,No matching stocks found.,,,,,
CG32795,No matching stocks found.,,,,,
Tmc,No matching stocks found.,,,,,
CG32803,No matching stocks found.,,,,,
CG32815,No matching stocks found.,,,,,
CG32816,No matching stocks found.,,,,,
CG32829,No matching stocks found.,,,,,
EndoU,No matching stocks found.,,,,,
CG33054,No matching stocks found.,,,,,
CG33056,No matching stocks found.,,,,,
CG3308,No matching stocks found.,,,,,
CG33095,No matching stocks found.,,,,,
CG33096,No matching stocks found.,,,,,
CG33107,No matching stocks found.,,,,,
CG33111,No matching stocks found.,,,,,
CG33158,No matching stocks found.,,,,,
CG33169,No matching stocks found.,,,,,
CG33229,No matching stocks found.,,,,,
CG33506,No matching stocks found.,,,,,
CG33509,No matching stocks found.,,,,,
CG33521,No matching stocks found.,,,,,
CG3358,No matching stocks found.,,,,,
ocm,No matching stocks found.,,,,,
CG33774,No matching stocks found.,,,,,
CG33978,No matching stocks found.,,,,,
CG3402,No matching stocks found.,,,,,
CG3408,No matching stocks found.,,,,,
CG34112,No matching stocks found.,,,,,
CG34125,No matching stocks found.,,,,,
CG34126,No matching stocks found.,,,,,
CG34133,No matching stocks found.,,,,,
CG34150,No matching stocks found.,,,,,
CG34159,No matching stocks found.,,,,,
CG34195,No matching stocks found.,,,,,
CG3420,No matching stocks found.,,,,,
CG34205,No matching stocks found.,,,,,
CG34208,No matching stocks found.,,,,,
CG34213,No matching stocks found.,,,,,
CG34228,No matching stocks found.,,,,,
CG34242,No matching stocks found.,,,,,
CG3434,No matching stocks found.,,,,,
stac,No matching stocks found.,,,,,
CG34375,No matching stocks found.,,,,,
CG34382,No matching stocks found.,,,,,
CG34398,No matching stocks found.,,,,,
CG34408,No matching stocks found.,,,,,
ND-MWFE,No matching stocks found.,,,,,
CG34461,No matching stocks found.,,,,,
CG3511,No matching stocks found.,,,,,
CG3520,No matching stocks found.,,,,,
Prp40,No matching stocks found.,,,,,
CG3548,No matching stocks found.,,,,,
CG3552,No matching stocks found.,,,,,
UQCR-14,No matching stocks found.,,,,,
CG3587,No matching stocks found.,,,,,
CG3588,No matching stocks found.,,,,,
CG3603,No matching stocks found.,,,,,
CG3626,No matching stocks found.,,,,,
CG3634,No matching stocks found.,,,,,
CG3638,No matching stocks found.,,,,,
CG3645,No matching stocks found.,,,,,
CG3655,No matching stocks found.,,,,,
CG3663,No matching stocks found.,,,,,
CG3704,No matching stocks found.,,,,,
CG3709,No matching stocks found.,,,,,
CG3735,No matching stocks found.,,,,,
CG3746,No matching stocks found.,,,,,
CG3776,No matching stocks found.,,,,,
CG3777,No matching stocks found.,,,,,
CG3793,No matching stocks found.,,,,,
CG3817,No matching stocks found.,,,,,
CG3823,No matching stocks found.,,,,,
CG3857,No matching stocks found.,,,,,
CG3860,No matching stocks found.,,,,,
CG3880,No matching stocks found.,,,,,
CG3918,No matching stocks found.,,,,,
CG4000,No matching stocks found.,,,,,
CG4004,No matching stocks found.,,,,,
CG4017,No matching stocks found.,,,,,
l(3)80Fg,No matching stocks found.,,,,,
CG40191,No matching stocks found.,,,,,
CG4022,No matching stocks found.,,,,,
CG4025,No matching stocks found.,,,,,
Rbpn-5,No matching stocks found.,,,,,
CG4036,No matching stocks found.,,,,,
CG40439,No matching stocks found.,,,,,
Tmtc3,No matching stocks found.,,,,,
Rtca,No matching stocks found.,,,,,
CG44774,No matching stocks found.,,,,,
CG4069,No matching stocks found.,,,,,
CG4080,No matching stocks found.,,,,,
TTLL15,No matching stocks found.,,,,,
CG4101,No matching stocks found.,,,,,
CG41128,No matching stocks found.,,,,,
CG41520,No matching stocks found.,,,,,
CR43080,No matching stocks found.,,,,,
CG4199,No matching stocks found.,,,,,
CG4213,No matching stocks found.,,,,,
CG42239,No matching stocks found.,,,,,
CG42258,No matching stocks found.,,,,,
CG42259,No matching stocks found.,,,,,
CG42268,No matching stocks found.,,,,,
CG42269,No matching stocks found.,,,,,
CG42319,No matching stocks found.,,,,,
CG42336,No matching stocks found.,,,,,
CG42359,No matching stocks found.,,,,,
CG42382,No matching stocks found.,,,,,
CG42390,No matching stocks found.,,,,,
CG42394,No matching stocks found.,,,,,
OtopLa,No matching stocks found.,,,,,
CG42514,No matching stocks found.,,,,,
Kmn2,No matching stocks found.,,,,,
Ubr3,No matching stocks found.,,,,,
CG42676,No matching stocks found.,,,,,
CG42700,No matching stocks found.,,,,,
CG42784,No matching stocks found.,,,,,
CG42806,No matching stocks found.,,,,,
CG42808,No matching stocks found.,,,,,
CG4287,No matching stocks found.,,,,,
CG4297,No matching stocks found.,,,,,
CG43091,No matching stocks found.,,,,,
CG43092,No matching stocks found.,,,,,
CG43093,No matching stocks found.,,,,,
CG4324,No matching stocks found.,,,,,
lncRNA:CR43266,No matching stocks found.,,,,,
CG43341,No matching stocks found.,,,,,
CG43366,No matching stocks found.,,,,,
CG4338,No matching stocks found.,,,,,
CG43448,No matching stocks found.,,,,,
CG43672,No matching stocks found.,,,,,
CG45050,No matching stocks found.,,,,,
CG43736,No matching stocks found.,,,,,
CG43759,No matching stocks found.,,,,,
CG43861,No matching stocks found.,,,,,
Fife,No matching stocks found.,,,,,
CG44006,No matching stocks found.,,,,,
Vti1b,No matching stocks found.,,,,,
PIG-K,No matching stocks found.,,,,,
CG44085,No matching stocks found.,,,,,
CG4452,No matching stocks found.,,,,,
CG4455,No matching stocks found.,,,,,
CG4497,No matching stocks found.,,,,,
CG4511,No matching stocks found.,,,,,
CG4537,No matching stocks found.,,,,,
TBC1D23,No matching stocks found.,,,,,
CG4592,No matching stocks found.,,,,,
CG4593,No matching stocks found.,,,,,
CG4607,No matching stocks found.,,,,,
CG4611,No matching stocks found.,,,,,
CG4622,No matching stocks found.,,,,,
CG4627,No matching stocks found.,,,,,
CG4629,No matching stocks found.,,,,,
CG4645,No matching stocks found.,,,,,
CG4658,No matching stocks found.,,,,,
MICU3,No matching stocks found.,,,,,
CG4676,No matching stocks found.,,,,,
CG4679,No matching stocks found.,,,,,
CG4686,No matching stocks found.,,,,,
ATPsynF,No matching stocks found.,,,,,
l(2)10685,No matching stocks found.,,,,,
CG4751,No matching stocks found.,,,,,
CG4789,No matching stocks found.,,,,,
CG4797,No matching stocks found.,,,,,
Pss,67761,HMS05789,CG4825,FBgn0037010,VALIUM20,attP40
CG4842,No matching stocks found.,,,,,
CG4866,No matching stocks found.,,,,,
CG4942,No matching stocks found.,,,,,
CG4953,No matching stocks found.,,,,,
CG4962,No matching stocks found.,,,,,
Vps50,No matching stocks found.,,,,,
Chchd2,No matching stocks found.,,,,,
CG5013,No matching stocks found.,,,,,
CG5021,No matching stocks found.,,,,,
CG5028,No matching stocks found.,,,,,
CG5039,No matching stocks found.,,,,,
CG5065,No matching stocks found.,,,,,
CG5104,No matching stocks found.,,,,,
CG5112,No matching stocks found.,,,,,
CG5116,No matching stocks found.,,,,,
Charon,No matching stocks found.,,,,,
CG5126,No matching stocks found.,,,,,
CG5162,No matching stocks found.,,,,,
CG5172,No matching stocks found.,,,,,
CG5188,No matching stocks found.,,,,,
CG5191,No matching stocks found.,,,,,
CG5199,No matching stocks found.,,,,,
obe,No matching stocks found.,,,,,
CG5274,No matching stocks found.,,,,,
CG5339,No matching stocks found.,,,,,
CG5346,No matching stocks found.,,,,,
CG5355,No matching stocks found.,,,,,
CG5359,No matching stocks found.,,,,,
CG5397,No matching stocks found.,,,,,
GatB,No matching stocks found.,,,,,
CG5498,No matching stocks found.,,,,,
CG5500,No matching stocks found.,,,,,
CG5515,No matching stocks found.,,,,,
CG5532,No matching stocks found.,,,,,
CG5535,No matching stocks found.,,,,,
CG5554,No matching stocks found.,,,,,
CG5567,No matching stocks found.,,,,,
CG5597,No matching stocks found.,,,,,
Ufd4,No matching stocks found.,,,,,
hdly,No matching stocks found.,,,,,
CG5674,No matching stocks found.,,,,,
CG5676,No matching stocks found.,,,,,
CG5726,No matching stocks found.,,,,,
Snx17,No matching stocks found.,,,,,
CG5745,No matching stocks found.,,,,,
CG5746,No matching stocks found.,,,,,
CG5773,No matching stocks found.,,,,,
Pih1D1,No matching stocks found.,,,,,
CG5815,No matching stocks found.,,,,,
CG5823,No matching stocks found.,,,,,
CG5835,No matching stocks found.,,,,,
CG5853,No matching stocks found.,,,,,
CG5854,No matching stocks found.,,,,,
CG5862,No matching stocks found.,,,,,
CG5886,No matching stocks found.,,,,,
CG5973,No matching stocks found.,,,,,
CG6015,No matching stocks found.,,,,,
CG6040,No matching stocks found.,,,,,
CG6051,No matching stocks found.,,,,,
CG6115,No matching stocks found.,,,,,
CG6163,No matching stocks found.,,,,,
CG6171,No matching stocks found.,,,,,
CG6191,No matching stocks found.,,,,,
fand,No matching stocks found.,,,,,
CG6204,No matching stocks found.,,,,,
TAF1B,No matching stocks found.,,,,,
CG6388,No matching stocks found.,,,,,
CG6398,No matching stocks found.,,,,,
OXA1L,No matching stocks found.,,,,,
CG6409,No matching stocks found.,,,,,
CG6414,No matching stocks found.,,,,,
CG6424,No matching stocks found.,,,,,
CG6426,No matching stocks found.,,,,,
CG6443,No matching stocks found.,,,,,
CG6454,No matching stocks found.,,,,,
CG6479,No matching stocks found.,,,,,
FRG1,No matching stocks found.,,,,,
CG6565,No matching stocks found.,,,,,
Camp,No matching stocks found.,,,,,
CG6583,No matching stocks found.,,,,,
SCCRO4,No matching stocks found.,,,,,
CG6607,No matching stocks found.,,,,,
Hou,No matching stocks found.,,,,,
CG6621,No matching stocks found.,,,,,
CG6700,No matching stocks found.,,,,,
CG6712,No matching stocks found.,,,,,
CG6729,No matching stocks found.,,,,,
CG6739,No matching stocks found.,,,,,
CG6758,No matching stocks found.,,,,,
Prps,No matching stocks found.,,,,,
CG6834,No matching stocks found.,,,,,
CG6845,No matching stocks found.,,,,,
Grx1,No matching stocks found.,,,,,
CG6878,No matching stocks found.,,,,,
CG6891,No matching stocks found.,,,,,
CG6959,No matching stocks found.,,,,,
CG6974,No matching stocks found.,,,,,
CG7011,No matching stocks found.,,,,,
Usp12-46,No matching stocks found.,,,,,
CG7029,No matching stocks found.,,,,,
CG7054,No matching stocks found.,,,,,
CG7110,No matching stocks found.,,,,,
CG7120,No matching stocks found.,,,,,
CG7154,No matching stocks found.,,,,,
CRIF,No matching stocks found.,,,,,
CG7173,No matching stocks found.,,,,,
CG7183,No matching stocks found.,,,,,
CG7201,No matching stocks found.,,,,,
CG7214,No matching stocks found.,,,,,
CG7220,No matching stocks found.,,,,,
CG7222,No matching stocks found.,,,,,
CG7246,No matching stocks found.,,,,,
Nup93-2,No matching stocks found.,,,,,
CG7382,No matching stocks found.,,,,,
CG7402,No matching stocks found.,,,,,
SCCRO,No matching stocks found.,,,,,
CG7430,No matching stocks found.,,,,,
CG7453,No matching stocks found.,,,,,
CG7488,No matching stocks found.,,,,,
CG7536,No matching stocks found.,,,,,
CG7600,No matching stocks found.,,,,,
emei,No matching stocks found.,,,,,
CG7639,No matching stocks found.,,,,,
CG7646,No matching stocks found.,,,,,
CG7655,No matching stocks found.,,,,,
CG7656,No matching stocks found.,,,,,
CG7668,No matching stocks found.,,,,,
CG7675,No matching stocks found.,,,,,
CG7702,No matching stocks found.,,,,,
CG7706,No matching stocks found.,,,,,
pasi1,No matching stocks found.,,,,,
CG7720,No matching stocks found.,,,,,
CG7728,No matching stocks found.,,,,,
CG7739,No matching stocks found.,,,,,
CG7772,No matching stocks found.,,,,,
CG7778,No matching stocks found.,,,,,
CG7791,No matching stocks found.,,,,,
CG7824,No matching stocks found.,,,,,
l(2)k09848,No matching stocks found.,,,,,
pns,No matching stocks found.,,,,,
CG7857,No matching stocks found.,,,,,
CG7872,No matching stocks found.,,,,,
CG7888,No matching stocks found.,,,,,
CG7943,No matching stocks found.,,,,,
CG7991,No matching stocks found.,,,,,
CG8026,No matching stocks found.,,,,,
CG8066,No matching stocks found.,,,,,
CG8078,No matching stocks found.,,,,,
CG8097,No matching stocks found.,,,,,
pasi2,No matching stocks found.,,,,,
CG8134,No matching stocks found.,,,,,
CG8199,No matching stocks found.,,,,,
CG8202,No matching stocks found.,,,,,
Spt,No matching stocks found.,,,,,
CCT8,No matching stocks found.,,,,,
CG8312,No matching stocks found.,,,,,
CG8314,No matching stocks found.,,,,,
CG8321,No matching stocks found.,,,,,
CG8326,No matching stocks found.,,,,,
CG8336,No matching stocks found.,,,,,
CG8369,No matching stocks found.,,,,,
Tmem131,No matching stocks found.,,,,,
CG8372,No matching stocks found.,,,,,
Smyd4-4,No matching stocks found.,,,,,
CG8379,No matching stocks found.,,,,,
Ufc1,No matching stocks found.,,,,,
CG8389,No matching stocks found.,,,,,
CG8405,No matching stocks found.,,,,,
CG8420,No matching stocks found.,,,,,
CG8441,No matching stocks found.,,,,,
CG42837,No matching stocks found.,,,,,
CG44242,No matching stocks found.,,,,,
CG44243,No matching stocks found.,,,,,
TBC1D5,No matching stocks found.,,,,,
CG8461,No matching stocks found.,,,,,
CG8468,No matching stocks found.,,,,,
CG34134,No matching stocks found.,,,,,
Acbp1,No matching stocks found.,,,,,
CG8507,No matching stocks found.,,,,,
CG8531,No matching stocks found.,,,,,
CG8547,No matching stocks found.,,,,,
CG8578,No matching stocks found.,,,,,
CG8586,No matching stocks found.,,,,,
mrva,No matching stocks found.,,,,,
Rint1,No matching stocks found.,,,,,
CG8675,No matching stocks found.,,,,,
CG8677,No matching stocks found.,,,,,
CG8736,No matching stocks found.,,,,,
CG8740,No matching stocks found.,,,,,
CG8785,No matching stocks found.,,,,,
CG8788,No matching stocks found.,,,,,
CG8818,No matching stocks found.,,,,,
DUBAI,No matching stocks found.,,,,,
CG8925,No matching stocks found.,,,,,
CG8927,No matching stocks found.,,,,,
Slc25A46a,No matching stocks found.,,,,,
CG8939,No matching stocks found.,,,,,
wcy,No matching stocks found.,,,,,
CG8974,No matching stocks found.,,,,,
CG9004,No matching stocks found.,,,,,
CG9044,No matching stocks found.,,,,,
CG9062,No matching stocks found.,,,,,
CG9067,No matching stocks found.,,,,,
DENR,No matching stocks found.,,,,,
tfc,No matching stocks found.,,,,,
CG9143,No matching stocks found.,,,,,
CG9147,No matching stocks found.,,,,,
Herc4,No matching stocks found.,,,,,
CG9154,No matching stocks found.,,,,,
CG9170,No matching stocks found.,,,,,
CG9171,No matching stocks found.,,,,,
CG9175,No matching stocks found.,,,,,
CG9192,No matching stocks found.,,,,,
Coq3,No matching stocks found.,,,,,
CG9257,No matching stocks found.,,,,,
CG9286,No matching stocks found.,,,,,
Ing5,No matching stocks found.,,,,,
CG9297,No matching stocks found.,,,,,
CG9300,No matching stocks found.,,,,,
CG9328,No matching stocks found.,,,,,
CG9336,No matching stocks found.,,,,,
CG9338,No matching stocks found.,,,,,
CG9360,No matching stocks found.,,,,,
PIG-F,No matching stocks found.,,,,,
CG9393,No matching stocks found.,,,,,
CG9471,No matching stocks found.,,,,,
CG9586,No matching stocks found.,,,,,
CG9590,No matching stocks found.,,,,,
CG9593,No matching stocks found.,,,,,
CG9596,No matching stocks found.,,,,,
CG9628,No matching stocks found.,,,,,
CG9630,No matching stocks found.,,,,,
CG9662,No matching stocks found.,,,,,
kud,No matching stocks found.,,,,,
CG9686,No matching stocks found.,,,,,
CG9689,No matching stocks found.,,,,,
CG9691,No matching stocks found.,,,,,
Ibf2,No matching stocks found.,,,,,
CG9752,No matching stocks found.,,,,,
Panx,No matching stocks found.,,,,,
CG9782,No matching stocks found.,,,,,
CG9795,No matching stocks found.,,,,,
CG9815,No matching stocks found.,,,,,
CG9853,No matching stocks found.,,,,,
CG9855,No matching stocks found.,,,,,
Bacc,No matching stocks found.,,,,,
Had1,No matching stocks found.,,,,,
CG9915,No matching stocks found.,,,,,
CG9921,No matching stocks found.,,,,,
CG9922,No matching stocks found.,,,,,
CG9932,No matching stocks found.,,,,,
CG9951,No matching stocks found.,,,,,
CG9967,No matching stocks found.,,,,,
RtcB,No matching stocks found.,,,,,
snu,No matching stocks found.,,,,,
CG9992,No matching stocks found.,,,,,
CHKov1,No matching stocks found.,,,,,
lncRNA:CR34335,No matching stocks found.,,,,,
CR40502,No matching stocks found.,,,,,
CR40546,No matching stocks found.,,,,,
28SrRNA-Psi:CR40596,No matching stocks found.,,,,,
CR41540,No matching stocks found.,,,,,
18SrRNA:CR41548,No matching stocks found.,,,,,
CR41590,No matching stocks found.,,,,,
18SrRNA-Psi:CR41602,No matching stocks found.,,,,,
28SrRNA-Psi:CR41609,No matching stocks found.,,,,,
CR41619,No matching stocks found.,,,,,
lncRNA:CR42491,No matching stocks found.,,,,,
asRNA:CR42547,No matching stocks found.,,,,,
lncRNA:CR42549,No matching stocks found.,,,,,
CG43051,No matching stocks found.,,,,,
lncRNA:CR43241,No matching stocks found.,,,,,
lncRNA:CR43242,No matching stocks found.,,,,,
lncRNA:CR43264,No matching stocks found.,,,,,
lncRNA:CR43314,No matching stocks found.,,,,,
lncRNA:CR43334,No matching stocks found.,,,,,
lncRNA:CR43432,No matching stocks found.,,,,,
lncRNA:CR43459,No matching stocks found.,,,,,
lncRNA:CR43626,No matching stocks found.,,,,,
lncRNA:CR43650,No matching stocks found.,,,,,
lncRNA:CR43857,No matching stocks found.,,,,,
lncRNA:CR44042,No matching stocks found.,,,,,
Ca-beta,29575,JF03254,CG42403,FBgn0259822,VALIUM10,attP2
Ca-beta,43292,HMS02664,CG42403,FBgn0259822,VALIUM20,attP40
Ca-beta,,HMJ21578,CG42403,FBgn0259822,VALIUM20,attP40
CanB,No matching stocks found.,,,,,
Capr,No matching stocks found.,,,,,
Df(3L)Cat,No matching stocks found.,,,,,
P{UAS-Parp.Cat.EYFP},No matching stocks found.,,,,,
sv[spa-Cat],No matching stocks found.,,,,,
Cep97,No matching stocks found.,,,,,
Cfp1,No matching stocks found.,,,,,
CheA7a,No matching stocks found.,,,,,
CkIIalpha-i3,No matching stocks found.,,,,,
slf,No matching stocks found.,,,,,
P{Csp[Clp]},No matching stocks found.,,,,,
COX4,No matching stocks found.,,,,,
COX6B,No matching stocks found.,,,,,
Cog3,No matching stocks found.,,,,,
Cp110,No matching stocks found.,,,,,
Cpr12A,No matching stocks found.,,,,,
Cpr30F,No matching stocks found.,,,,,
Cpr47Ef,No matching stocks found.,,,,,
Cpr49Ae,No matching stocks found.,,,,,
Cpr49Ag,No matching stocks found.,,,,,
Cpr50Ca,No matching stocks found.,,,,,
Cpr50Cb,No matching stocks found.,,,,,
Cpr62Bb,No matching stocks found.,,,,,
Cpr64Aa,No matching stocks found.,,,,,
Cpr67B,No matching stocks found.,,,,,
Cpr76Bb,No matching stocks found.,,,,,
Cpr76Bc,No matching stocks found.,,,,,
Cpr76Bd,No matching stocks found.,,,,,
Cpr78E,No matching stocks found.,,,,,
Cpr92A,No matching stocks found.,,,,,
Cpr92F,No matching stocks found.,,,,,
Cpr97Ea,No matching stocks found.,,,,,
Cpr97Eb,No matching stocks found.,,,,,
crc,No matching stocks found.,,,,,
Cyp12e1,No matching stocks found.,,,,,
Cyp301a1,No matching stocks found.,,,,,
Cyp4e1,No matching stocks found.,,,,,
Cyp6a21,No matching stocks found.,,,,,
Cyp9c1,No matching stocks found.,,,,,
Cypl,No matching stocks found.,,,,,
Df(3L)HnD-1,No matching stocks found.,,,,,
anon-12Db,No matching stocks found.,,,,,
E(tkv)D1,No matching stocks found.,,,,,
P{eve-lacZ.D1},No matching stocks found.,,,,,
mul[3],No matching stocks found.,,,,,
mus301[D1],No matching stocks found.,,,,,
Scm[D1],No matching stocks found.,,,,,
vas[3],No matching stocks found.,,,,,
E(tkv)D1[D1],No matching stocks found.,,,,,
Mhc[D1],No matching stocks found.,,,,,
eRF1[D1],No matching stocks found.,,,,,
Gad1[E143K],No matching stocks found.,,,,,
Desat1[1573-D1],No matching stocks found.,,,,,
D12.A,No matching stocks found.,,,,,
l(1)ESHS22[1],No matching stocks found.,,,,,
ras[l14],No matching stocks found.,,,,,
D12.A[D12.A],No matching stocks found.,,,,,
PolI,No matching stocks found.,,,,,
P{UAS-Dcr-2.D},No matching stocks found.,,,,,
Den1,No matching stocks found.,,,,,
Der-1,No matching stocks found.,,,,,
Der-2,No matching stocks found.,,,,,
Dgp-1,No matching stocks found.,,,,,
Dic1,No matching stocks found.,,,,,
Dif,No matching stocks found.,,,,,
DIP1[EY02625],No matching stocks found.,,,,,
Dl[1],No matching stocks found.,,,,,
P{GawB}Dll[md23],No matching stocks found.,,,,,
Dnz1,No matching stocks found.,,,,,
Doc1,No matching stocks found.,,,,,
Dok,No matching stocks found.,,,,,
Ugt36A1,No matching stocks found.,,,,,
Ts(YLt;3Lt)A109+Ts(YSt;3Rt)G144,No matching stocks found.,,,,,
Ts(YLt;3Lt)A154+Ts(YLt;3Rt)J17,No matching stocks found.,,,,,
Ts(YLt;3Lt)B155+Ts(YLt;3Rt)J17,No matching stocks found.,,,,,
Ts(YLt;3Rt)L132+Ts(YLt;3Lt)L136,No matching stocks found.,,,,,
Ts(YSt;3Lt)D85+Ts(YSt;3Rt)L136,No matching stocks found.,,,,,
Ts(YSt;3Rt)A109+Ts(YLt;3Lt)L136,No matching stocks found.,,,,,
Ts(YSt;3Rt)A109+Ts(YSt;3Lt)D85,No matching stocks found.,,,,,
Ts(YSt;3Rt)A154+Ts(YLt;3Lt)B155,No matching stocks found.,,,,,
Ts(YSt;3Rt)A154+Ts(YLt;3Lt)G144,No matching stocks found.,,,,,
Ts(YSt;3Rt)A154+Ts(YSt;3Lt)L132,No matching stocks found.,,,,,
Ts(YSt;3Rt)B155+Ts(YLt;3Lt)G144,No matching stocks found.,,,,,
Ts(YSt;3Rt)B155+Ts(YSt;3Lt)L132,No matching stocks found.,,,,,
Ts(YSt;3Rt)G144+Ts(YLt;3Lt)L136,No matching stocks found.,,,,,
Ts(YSt;3Rt)G144+Ts(YSt;3Lt)L132,No matching stocks found.,,,,,
Dr[1],No matching stocks found.,,,,,
Dpit47,No matching stocks found.,,,,,
DppIII,No matching stocks found.,,,,,
Rsp,No matching stocks found.,,,,,
E(Pc)[1],No matching stocks found.,,,,,
E(spl)m8-HLH,No matching stocks found.,,,,,
l(3)93Dl,No matching stocks found.,,,,,
l(3)93Dl[E23],No matching stocks found.,,,,,
Rel[E23],No matching stocks found.,,,,,
P{GAL4}E23,No matching stocks found.,,,,,
P{E5-EGFP},No matching stocks found.,,,,,
mRRF2,No matching stocks found.,,,,,
Edem2,No matching stocks found.,,,,,
eEF1beta,No matching stocks found.,,,,,
eEF1gamma,No matching stocks found.,,,,,
eEF2,No matching stocks found.,,,,,
Efr,No matching stocks found.,,,,,
Eip63F-1,No matching stocks found.,,,,,
EndoGI,No matching stocks found.,,,,,
Ent1,No matching stocks found.,,,,,
Esyt2,No matching stocks found.,,,,,
FLASH,No matching stocks found.,,,,,
Fem-1,No matching stocks found.,,,,,
Fip1,No matching stocks found.,,,,,
Fs(2)M,No matching stocks found.,,,,,
Adh[Fs],No matching stocks found.,,,,,
Fs(2)M[1],No matching stocks found.,,,,,
FucT6,No matching stocks found.,,,,,
GAPsec,No matching stocks found.,,,,,
Galphaq,No matching stocks found.,,,,,
Gapdh2,No matching stocks found.,,,,,
Gas41,No matching stocks found.,,,,,
DCTN1-p150[1],No matching stocks found.,,,,,
Gyg,No matching stocks found.,,,,,
P{UAS-Gprk2.Cb},No matching stocks found.,,,,,
Grip128,No matching stocks found.,,,,,
Grip71,No matching stocks found.,,,,,
GstD9,No matching stocks found.,,,,,
Ts(YLt;2Rt)A62+Ts(YLt;2Lt)B214,No matching stocks found.,,,,,
l(3)68Ac,No matching stocks found.,,,,,
l(2)46Ej,No matching stocks found.,,,,,
RFeSP,No matching stocks found.,,,,,
H[1],No matching stocks found.,,,,,
l(3)84Eg[1],No matching stocks found.,,,,,
Hsp23[H],No matching stocks found.,,,,,
w[hdrvH],No matching stocks found.,,,,,
HBS1,No matching stocks found.,,,,,
HP4,No matching stocks found.,,,,,
HP5,No matching stocks found.,,,,,
HDAC3,No matching stocks found.,,,,,
HipHop,No matching stocks found.,,,,,
Hmr[1],No matching stocks found.,,,,,
rbl,No matching stocks found.,,,,,
Hpr1,No matching stocks found.,,,,,
Hr3,No matching stocks found.,,,,,
Hs2st,No matching stocks found.,,,,,
Hsp70Bb,No matching stocks found.,,,,,
P{C15.I-2.hs43-lacZ},No matching stocks found.,,,,,
Ide,No matching stocks found.,,,,,
CG11110,No matching stocks found.,,,,,
ImpE1,No matching stocks found.,,,,,
ImpE3,No matching stocks found.,,,,,
Indy,No matching stocks found.,,,,,
Ing3,No matching stocks found.,,,,,
eIF3e,No matching stocks found.,,,,,
Invadolysin,No matching stocks found.,,,,,
Jwa,No matching stocks found.,,,,,
Karybeta3,No matching stocks found.,,,,,
Kebab,No matching stocks found.,,,,,
Lar,No matching stocks found.,,,,,
larv,No matching stocks found.,,,,,
Lar[unspecified],No matching stocks found.,,,,,
Larp7,No matching stocks found.,,,,,
Lasp,No matching stocks found.,,,,,
M6-ML,No matching stocks found.,,,,,
l(1)MZ6,No matching stocks found.,,,,,
P{su(Hw).M6},No matching stocks found.,,,,,
br[2Bab-10],No matching stocks found.,,,,,
l(1)MZ6[1],No matching stocks found.,,,,,
Nopp140[M6],No matching stocks found.,,,,,
P{UASp-Lgr3.G}M6,No matching stocks found.,,,,,
MED24,No matching stocks found.,,,,,
MP1,No matching stocks found.,,,,,
RNaseMRP:RNA,No matching stocks found.,,,,,
MSBP,No matching stocks found.,,,,,
Mad[1],No matching stocks found.,,,,,
Mat89Ba,No matching stocks found.,,,,,
Mcm10,No matching stocks found.,,,,,
Mctp,No matching stocks found.,,,,,
Mdh1,No matching stocks found.,,,,,
P{GAL4-Mef2.R},No matching stocks found.,,,,,
Metatarsi-irregular,No matching stocks found.,,,,,
Met[1],No matching stocks found.,,,,,
Mf,No matching stocks found.,,,,,
Dr[Mio],No matching stocks found.,,,,,
Mlp84B,No matching stocks found.,,,,,
Mms19,No matching stocks found.,,,,,
Mob2,No matching stocks found.,,,,,
Mpp6,No matching stocks found.,,,,,
Mst85C,No matching stocks found.,,,,,
MtnA,No matching stocks found.,,,,,
Mtr3,No matching stocks found.,,,,,
Myb,No matching stocks found.,,,,,
Mys45A,No matching stocks found.,,,,,
l(2)28Bb,No matching stocks found.,,,,,
Dl::N,No matching stocks found.,,,,,
P{y.N.TARG},No matching stocks found.,,,,,
P{GFP-asp.N},No matching stocks found.,,,,,
N[Hsp70Bb.PL],No matching stocks found.,,,,,
w[hdrvN],No matching stocks found.,,,,,
hiw[ND42],No matching stocks found.,,,,,
NLaz,No matching stocks found.,,,,,
Naa60,No matching stocks found.,,,,,
Nacalpha,No matching stocks found.,,,,,
Nap1,No matching stocks found.,,,,,
Ndg,No matching stocks found.,,,,,
Nep4,No matching stocks found.,,,,,
Ts(1Lt;YSt)B118+Ts(1Rt;YLt)T9,No matching stocks found.,,,,,
Df(1)NP5,No matching stocks found.,,,,,
Df(1)NetAB[Delta],No matching stocks found.,,,,,
Nhe2,No matching stocks found.,,,,,
Nnp-1,No matching stocks found.,,,,,
Nop17l,No matching stocks found.,,,,,
Nop56,No matching stocks found.,,,,,
Np[1],No matching stocks found.,,,,,
Ntmt,No matching stocks found.,,,,,
Nup107,No matching stocks found.,,,,,
Nup205,No matching stocks found.,,,,,
ORMDL,No matching stocks found.,,,,,
Oatp30B,No matching stocks found.,,,,,
Oatp74D,No matching stocks found.,,,,,
Obp19b,No matching stocks found.,,,,,
Obp56a,No matching stocks found.,,,,,
Obp57c,No matching stocks found.,,,,,
Obp57a,No matching stocks found.,,,,,
Obp99b,No matching stocks found.,,,,,
Or43b[1],No matching stocks found.,,,,,
Osbp,No matching stocks found.,,,,,
Osi9,No matching stocks found.,,,,,
Df(2R)P32a,No matching stocks found.,,,,,
P{ft.P32.V5},No matching stocks found.,,,,,
Mtr4[2],No matching stocks found.,,,,,
P{UAS-PGRP-LC.x},No matching stocks found.,,,,,
PBac{681.P.FSVS-1}PH4alphaEFB[CPTI002064],No matching stocks found.,,,,,
PRL-1,No matching stocks found.,,,,,
P{UAS-PRL-1.P},No matching stocks found.,,,,,
Pa1,No matching stocks found.,,,,,
Paip2,No matching stocks found.,,,,,
Pat1,No matching stocks found.,,,,,
Pen,27692,JF02772,CG4799,FBgn0267727,VALIUM10,attP2
Pen,43142,GL01483,CG4799,FBgn0267727,VALIUM22,attP2
Pen,,HMC07433,CG4799,FBgn0267727,pNP,attp40
Pepck1,No matching stocks found.,,,,,
Phax,No matching stocks found.,,,,,
Piezo,No matching stocks found.,,,,,
Poc1,No matching stocks found.,,,,,
Ppn,No matching stocks found.,,,,,
Psc[1],No matching stocks found.,,,,,
Psf3,No matching stocks found.,,,,,
Ptpa,No matching stocks found.,,,,,
Pxn,No matching stocks found.,,,,,
Dp(1;f)R,No matching stocks found.,,,,,
In(3R)Antp[R],No matching stocks found.,,,,,
l(2)46Eh,No matching stocks found.,,,,,
ninaE,No matching stocks found.,,,,,
Rst(2)Lb[R],No matching stocks found.,,,,,
Rst(2)At[R],No matching stocks found.,,,,,
RpLP1,No matching stocks found.,,,,,
Rac2[Delta],No matching stocks found.,,,,,
Rbcn-3B,No matching stocks found.,,,,,
Rbm13,No matching stocks found.,,,,,
Rcd1,No matching stocks found.,,,,,
Rcd2,No matching stocks found.,,,,,
Rcd4,No matching stocks found.,,,,,
Rcd6,No matching stocks found.,,,,,
Rcd7,No matching stocks found.,,,,,
Ref1,No matching stocks found.,,,,,
Reg-5,No matching stocks found.,,,,,
Reps,No matching stocks found.,,,,,
RfC38,No matching stocks found.,,,,,
RfC4,No matching stocks found.,,,,,
Rich,No matching stocks found.,,,,,
RluA-1,No matching stocks found.,,,,,
Roc2,No matching stocks found.,,,,,
Roc1b,No matching stocks found.,,,,,
RpI1,No matching stocks found.,,,,,
RpII18,No matching stocks found.,,,,,
RpIII128,No matching stocks found.,,,,,
mRpL10,No matching stocks found.,,,,,
RpL12,No matching stocks found.,,,,,
RpL13,No matching stocks found.,,,,,
RpL13A,No matching stocks found.,,,,,
RpL15,No matching stocks found.,,,,,
RpL18A,No matching stocks found.,,,,,
RpL21,No matching stocks found.,,,,,
M(2)59B,No matching stocks found.,,,,,
mRpL24,No matching stocks found.,,,,,
RpL24-like,No matching stocks found.,,,,,
RpL26,No matching stocks found.,,,,,
RpL27,No matching stocks found.,,,,,
RpL27A,No matching stocks found.,,,,,
RpL29,No matching stocks found.,,,,,
RpL3,No matching stocks found.,,,,,
RpL34b,No matching stocks found.,,,,,
RpL35,No matching stocks found.,,,,,
RpL37A,No matching stocks found.,,,,,
RpL37a,No matching stocks found.,,,,,
RpL38,No matching stocks found.,,,,,
RpL4,No matching stocks found.,,,,,
RpL7-like,No matching stocks found.,,,,,
RpL7A,No matching stocks found.,,,,,
RpL9,No matching stocks found.,,,,,
RpS11,No matching stocks found.,,,,,
RpS12,No matching stocks found.,,,,,
RpS14a,No matching stocks found.,,,,,
RpS18,No matching stocks found.,,,,,
M(2)56F,No matching stocks found.,,,,,
RpS21,No matching stocks found.,,,,,
RpS25,No matching stocks found.,,,,,
RpS3A,No matching stocks found.,,,,,
RpS7,No matching stocks found.,,,,,
mRpS7,No matching stocks found.,,,,,
RpS8,No matching stocks found.,,,,,
Rpb11,No matching stocks found.,,,,,
Rrp42,No matching stocks found.,,,,,
Rrp47,No matching stocks found.,,,,,
Rtnl1,No matching stocks found.,,,,,
Df(2L)S2,No matching stocks found.,,,,,
l(2)46Ei,No matching stocks found.,,,,,
P{Sur.En3.S-LacZ},No matching stocks found.,,,,,
Adh[S],No matching stocks found.,,,,,
alpha-Est5[S],No matching stocks found.,,,,,
Gpdh1[B],No matching stocks found.,,,,,
Idh[S],No matching stocks found.,,,,,
S[1],No matching stocks found.,,,,,
Sod1[S],No matching stocks found.,,,,,
Aldox89A[S],No matching stocks found.,,,,,
Est-6[S],No matching stocks found.,,,,,
Mdh1[S],No matching stocks found.,,,,,
Acph-1[S],No matching stocks found.,,,,,
Rst(2)Lb[S],No matching stocks found.,,,,,
Pgd[S],No matching stocks found.,,,,,
Rst(2)At[S],No matching stocks found.,,,,,
SF-1,No matching stocks found.,,,,,
P{CaSpeR.SF1},No matching stocks found.,,,,,
PolG2[1],No matching stocks found.,,,,,
SF-1[2.3],No matching stocks found.,,,,,
l(2)34Db[1],No matching stocks found.,,,,,
SIDL,No matching stocks found.,,,,,
SKIP,No matching stocks found.,,,,,
SP1173,No matching stocks found.,,,,,
Saf6,No matching stocks found.,,,,,
SamDC,No matching stocks found.,,,,,
Samuel,No matching stocks found.,,,,,
Sap130,No matching stocks found.,,,,,
Sb[1],No matching stocks found.,,,,,
Sema2b,No matching stocks found.,,,,,
Sesn,No matching stocks found.,,,,,
Sgf11,No matching stocks found.,,,,,
Sh3beta,No matching stocks found.,,,,,
Sirt4,No matching stocks found.,,,,,
Ski6,No matching stocks found.,,,,,
Slc45-1,No matching stocks found.,,,,,
Slimp,No matching stocks found.,,,,,
Sln,No matching stocks found.,,,,,
alphaSnap,No matching stocks found.,,,,,
Snm1,No matching stocks found.,,,,,
Sod3,No matching stocks found.,,,,,
Spase12,No matching stocks found.,,,,,
Spase22-23,No matching stocks found.,,,,,
Spase25,No matching stocks found.,,,,,
SpdS,No matching stocks found.,,,,,
Spn,No matching stocks found.,,,,,
Spn43Ad,No matching stocks found.,,,,,
Spn85F,No matching stocks found.,,,,,
Spn88Eb,No matching stocks found.,,,,,
SppL,No matching stocks found.,,,,,
Spt-I,No matching stocks found.,,,,,
Spt20,No matching stocks found.,,,,,
Srp68,No matching stocks found.,,,,,
Sry-alpha,No matching stocks found.,,,,,
Sry-beta,No matching stocks found.,,,,,
Sse,No matching stocks found.,,,,,
Su(H)[1],No matching stocks found.,,,,,
Su(var)205[1],No matching stocks found.,,,,,
Su(var)3-7[1],No matching stocks found.,,,,,
Su(var)3-9,No matching stocks found.,,,,,
Su(z)12[1],No matching stocks found.,,,,,
SuUR,No matching stocks found.,,,,,
SuUR[ES],No matching stocks found.,,,,,
Sugb,No matching stocks found.,,,,,
P{UAS-TBPH.R},No matching stocks found.,,,,,
Serinc,No matching stocks found.,,,,,
TRAM,No matching stocks found.,,,,,
Tak1[1],No matching stocks found.,,,,,
Tango4,No matching stocks found.,,,,,
Df(2L)Tep2-Tep3,No matching stocks found.,,,,,
In(2L)Tg,No matching stocks found.,,,,,
dpp[Tg],No matching stocks found.,,,,,
Tgt,No matching stocks found.,,,,,
Tim17b,No matching stocks found.,,,,,
Tina-1,No matching stocks found.,,,,,
P{UAS-Tom.L},No matching stocks found.,,,,,
Trax,No matching stocks found.,,,,,
Trp1,No matching stocks found.,,,,,
Tsp42Ea,No matching stocks found.,,,,,
Tsp42Ef,No matching stocks found.,,,,,
Tsp42Eg,No matching stocks found.,,,,,
Tsp42Eh,No matching stocks found.,,,,,
Tsp42El,No matching stocks found.,,,,,
U3-55K,No matching stocks found.,,,,,
Uba3,No matching stocks found.,,,,,
Ubc2,No matching stocks found.,,,,,
Ubx[1],No matching stocks found.,,,,,
Ubx[1:Cbx-1],No matching stocks found.,,,,,
Uhg2,No matching stocks found.,,,,,
Unc-115a,No matching stocks found.,,,,,
Unc-76,No matching stocks found.,,,,,
Vdup1,No matching stocks found.,,,,,
Vha14-1,No matching stocks found.,,,,,
Vha44,33884,HMS00821,CG8048,FBgn0262511,VALIUM20,attP2
ATP6AP2,No matching stocks found.,,,,,
T(3;4)Antp[W],No matching stocks found.,,,,,
l(2)46Eg,No matching stocks found.,,,,,
hid,No matching stocks found.,,,,,
Scr[W],No matching stocks found.,,,,,
Xe7,No matching stocks found.,,,,,
Yeti,No matching stocks found.,,,,,
Zasp66,No matching stocks found.,,,,,
Zpr1,No matching stocks found.,,,,,
Reepl1,No matching stocks found.,,,,,
PL(3)sp-W1,No matching stocks found.,,,,,
l(3)68Aa[1],No matching stocks found.,,,,,
l(3)68Ab[1],No matching stocks found.,,,,,
l(3)68Ad[1],No matching stocks found.,,,,,
l(3)68Ac[1],No matching stocks found.,,,,,
l(3)68Ae[1],No matching stocks found.,,,,,
l(3)68Bd[1],No matching stocks found.,,,,,
l(3)68Bg[1],No matching stocks found.,,,,,
l(3)68Bb[1],No matching stocks found.,,,,,
l(3)68Ba[1],No matching stocks found.,,,,,
l(3)68Bc[1],No matching stocks found.,,,,,
l(3)68Cb[1],No matching stocks found.,,,,,
l(3)68Cc[1],No matching stocks found.,,,,,
mei-9[a],No matching stocks found.,,,,,
a6,No matching stocks found.,,,,,
l(2)24Dd[1],No matching stocks found.,,,,,
abo[1],No matching stocks found.,,,,,
Adat1,No matching stocks found.,,,,,
P{UASp-alpha-Cat.D},No matching stocks found.,,,,,
alpha-Est3,No matching stocks found.,,,,,
alpha-Man-IIa,No matching stocks found.,,,,,
alpha-Man-IIb,No matching stocks found.,,,,,
alphaTub84B,No matching stocks found.,,,,,
lncRNA:alphagamma-element:CR32865,No matching stocks found.,,,,,
alt,No matching stocks found.,,,,,
ana2,No matching stocks found.,,,,,
ana3,No matching stocks found.,,,,,
P{GawB}ap[md544],No matching stocks found.,,,,,
Apart,No matching stocks found.,,,,,
P{GAL4-arm.S},No matching stocks found.,,,,,
asp[1],No matching stocks found.,,,,,
ast[1],No matching stocks found.,,,,,
asun[f02815],No matching stocks found.,,,,,
atilla,No matching stocks found.,,,,,
ave,No matching stocks found.,,,,,
C(2L)RM-P1,No matching stocks found.,,,,,
PL(3)sp-W2,No matching stocks found.,,,,,
anon-4Cd,No matching stocks found.,,,,,
b[1],No matching stocks found.,,,,,
l(3)68Aa[2],No matching stocks found.,,,,,
l(3)68Ab[2],No matching stocks found.,,,,,
l(3)68Ad[2],No matching stocks found.,,,,,
l(3)68Ag[2],No matching stocks found.,,,,,
l(3)68Ac[2],No matching stocks found.,,,,,
l(3)68Ae[2],No matching stocks found.,,,,,
l(3)68Bd[2],No matching stocks found.,,,,,
l(3)68Bg[2],No matching stocks found.,,,,,
l(3)68Bb[2],No matching stocks found.,,,,,
l(3)68Ba[2],No matching stocks found.,,,,,
l(3)68Bf[2],No matching stocks found.,,,,,
l(3)68Cb[2],No matching stocks found.,,,,,
bai,No matching stocks found.,,,,,
bai[1],No matching stocks found.,,,,,
bcn92,No matching stocks found.,,,,,
bdg,No matching stocks found.,,,,,
tu(3)be,No matching stocks found.,,,,,
beg,No matching stocks found.,,,,,
beta4GalNAcTB,No matching stocks found.,,,,,
bi[1],No matching stocks found.,,,,,
bic[1],No matching stocks found.,,,,,
bip1,No matching stocks found.,,,,,
Bl,No matching stocks found.,,,,,
blot,No matching stocks found.,,,,,
blue,44094,HMS02814,CG46284,FBgn0283503,VALIUM20,attP2
blue,41637,GL01219,CG46284,FBgn0283503,VALIUM22,attP40
bnb,No matching stocks found.,,,,,
boi,No matching stocks found.,,,,,
bonsai,No matching stocks found.,,,,,
P{brk.498-lacZ},No matching stocks found.,,,,,
bv,No matching stocks found.,,,,,
bur[1],No matching stocks found.,,,,,
ca[1],No matching stocks found.,,,,,
ca[unspecified],No matching stocks found.,,,,,
Df(1)BSC759,No matching stocks found.,,,,,
ms(2)05704,No matching stocks found.,,,,,
cer,No matching stocks found.,,,,,
cerv,No matching stocks found.,,,,,
chas,No matching stocks found.,,,,,
ci[1],No matching stocks found.,,,,,
ckn,No matching stocks found.,,,,,
clu,No matching stocks found.,,,,,
cmp,No matching stocks found.,,,,,
cm[unspecified],No matching stocks found.,,,,,
cold,No matching stocks found.,,,,,
comm2,No matching stocks found.,,,,,
corn,No matching stocks found.,,,,,
P{PT1}cpx[21],No matching stocks found.,,,,,
crc[1],No matching stocks found.,,,,,
crl,No matching stocks found.,,,,,
crm[1],No matching stocks found.,,,,,
crok,No matching stocks found.,,,,,
ct[1],No matching stocks found.,,,,,
cu[1],No matching stocks found.,,,,,
cv,No matching stocks found.,,,,,
C(1;Y)11,No matching stocks found.,,,,,
"P{U6:3-tRNA[His]-gRNA[y,cv,v,f,car]}",No matching stocks found.,,,,,
"P{U6:3-tRNA[His]-gRNA[y,cv,v,f,car]}attP40",No matching stocks found.,,,,,
l(3)68Aa[4],No matching stocks found.,,,,,
l(3)68Ab[4],No matching stocks found.,,,,,
l(3)68Ad[4],No matching stocks found.,,,,,
l(3)68Ag[4],No matching stocks found.,,,,,
l(3)68Bd[4],No matching stocks found.,,,,,
l(3)68Bb[4],No matching stocks found.,,,,,
dUTPase,No matching stocks found.,,,,,
P{GAL4-da.G32},No matching stocks found.,,,,,
P{da-GAL4.U},No matching stocks found.,,,,,
da[1],No matching stocks found.,,,,,
dikar[E3145],No matching stocks found.,,,,,
dpl,No matching stocks found.,,,,,
P{hb[Delta.dlg1]},No matching stocks found.,,,,,
dimorphos,No matching stocks found.,,,,,
dmt,No matching stocks found.,,,,,
dod,No matching stocks found.,,,,,
C(2L)RM-P2,No matching stocks found.,,,,,
dpy[ov1],No matching stocks found.,,,,,
P{GAL4-dpp.blk1},No matching stocks found.,,,,,
dsh[1],No matching stocks found.,,,,,
dsx[1],No matching stocks found.,,,,,
dwg[1],No matching stocks found.,,,,,
dx[1],No matching stocks found.,,,,,
l(3)68Aa[5],No matching stocks found.,,,,,
l(3)68Bd[5],No matching stocks found.,,,,,
l(3)68Bb[5],No matching stocks found.,,,,,
eIF3d1,No matching stocks found.,,,,,
eIF3c,No matching stocks found.,,,,,
eIF5,No matching stocks found.,,,,,
eIF6,No matching stocks found.,,,,,
ec,No matching stocks found.,,,,,
P{elav-GAL4.U},No matching stocks found.,,,,,
P{GAL4-elav.L},No matching stocks found.,,,,,
P{PT1}elav[95],No matching stocks found.,,,,,
P{GawB}elav[C155],No matching stocks found.,,,,,
elgi,No matching stocks found.,,,,,
P{en-GAL4.U},No matching stocks found.,,,,,
esg,28514,JF03134,CG3758,FBgn0001981,VALIUM10,attP2
esg,34063,HMS00025,CG3758,FBgn0001981,VALIUM20,attP2
esg,42846,HMS02538,CG3758,FBgn0001981,VALIUM20,attP40
esg,57148,GLC01862,CG3758,FBgn0001981,VALIUM22,attP2
Exo70,No matching stocks found.,,,,,
eyg,No matching stocks found.,,,,,
f-cup,No matching stocks found.,,,,,
fabp,No matching stocks found.,,,,,
fau,No matching stocks found.,,,,,
foi[neo13],No matching stocks found.,,,,,
fon,No matching stocks found.,,,,,
fru[1],No matching stocks found.,,,,,
fs(1)K10[1],No matching stocks found.,,,,,
fs(1)K10[unspecified],No matching stocks found.,,,,,
fs(2)ltoPP43[PP43],No matching stocks found.,,,,,
fwd[3],No matching stocks found.,,,,,
fy[1],No matching stocks found.,,,,,
Df(3L)fz-GF3b,No matching stocks found.,,,,,
Df(3L)fz-GS1a,No matching stocks found.,,,,,
g[1],No matching stocks found.,,,,,
g[X],No matching stocks found.,,,,,
l(3)68Aa[7],No matching stocks found.,,,,,
l(3)68Bb[7],No matching stocks found.,,,,,
gb,No matching stocks found.,,,,,
gem,No matching stocks found.,,,,,
dally[gem],No matching stocks found.,,,,,
Sec24CD,No matching stocks found.,,,,,
geko,No matching stocks found.,,,,,
glec,No matching stocks found.,,,,,
gloin,No matching stocks found.,,,,,
E(spl)m8-HLH[r26],No matching stocks found.,,,,,
gro[1],No matching stocks found.,,,,,
l(3)68Aa[8],No matching stocks found.,,,,,
l(3)68Bb[8],No matching stocks found.,,,,,
P{GAL4}h[H10],No matching stocks found.,,,,,
hd,No matching stocks found.,,,,,
Hdc,30489,HM05231,CG15532,FBgn0010113,VALIUM10,attP2
hoip,No matching stocks found.,,,,,
P{GawB}how[24B],No matching stocks found.,,,,,
icln,No matching stocks found.,,,,,
ics,No matching stocks found.,,,,,
ics[BG02577],No matching stocks found.,,,,,
jagn,No matching stocks found.,,,,,
kdn[PC64],No matching stocks found.,,,,,
P{UAS-kek5.GFP},No matching stocks found.,,,,,
ken[1],No matching stocks found.,,,,,
kn[1],No matching stocks found.,,,,,
knk,No matching stocks found.,,,,,
ko,No matching stocks found.,,,,,
ksh,No matching stocks found.,,,,,
l(1)G0004[G0004],No matching stocks found.,,,,,
l(1)G0007[G0007],No matching stocks found.,,,,,
l(1)G0020,No matching stocks found.,,,,,
l(1)G0020[G0020],No matching stocks found.,,,,,
Pop1[G0045],No matching stocks found.,,,,,
MagR[G0136],No matching stocks found.,,,,,
Cdc7[G0148],No matching stocks found.,,,,,
Idh3a,No matching stocks found.,,,,,
Idh3a[G0156],No matching stocks found.,,,,,
l(1)G0193[G0193],No matching stocks found.,,,,,
l(1)G0196[G0196],No matching stocks found.,,,,,
Ankle2[G0222],No matching stocks found.,,,,,
ATPsyndelta,No matching stocks found.,,,,,
ATPsyndelta[G0230],No matching stocks found.,,,,,
Ptpmeg2[G0232],No matching stocks found.,,,,,
Fum1[G0255],No matching stocks found.,,,,,
l(1)G0289[G0289],No matching stocks found.,,,,,
l(1)G0320[G0320],No matching stocks found.,,,,,
Pdha[G0334],No matching stocks found.,,,,,
l(1)G0469[G0469],No matching stocks found.,,,,,
l(2)01289,No matching stocks found.,,,,,
l(2)01289[01289],No matching stocks found.,,,,,
Phb2[03709],No matching stocks found.,,,,,
l(2)05714,No matching stocks found.,,,,,
l(2)05714[05714],No matching stocks found.,,,,,
ATPsynG[06225],No matching stocks found.,,,,,
DCTN3-p24,No matching stocks found.,,,,,
DCTN3-p24[06496],No matching stocks found.,,,,,
P{PZ}DCTN3-p24[06496],No matching stocks found.,,,,,
MFS14[08717],No matching stocks found.,,,,,
l(2)09851[09851],No matching stocks found.,,,,,
l(2)34Fc,No matching stocks found.,,,,,
l(2)34Fd,No matching stocks found.,,,,,
THG,No matching stocks found.,,,,,
Rnmt,No matching stocks found.,,,,,
Mtr4,No matching stocks found.,,,,,
ND-B17,No matching stocks found.,,,,,
l(2)37Cg,No matching stocks found.,,,,,
ft[9],No matching stocks found.,,,,,
Df(2R)k08901,No matching stocks found.,,,,,
l(2)k01209[k01209],No matching stocks found.,,,,,
l(2)k05819,No matching stocks found.,,,,,
l(2)k09022,No matching stocks found.,,,,,
l(2)k09022[k09022],No matching stocks found.,,,,,
l(2)k09913[k09913],No matching stocks found.,,,,,
Dad1[k12914],No matching stocks found.,,,,,
l(2)k14505[k14505],No matching stocks found.,,,,,
Ttc7[k14710],No matching stocks found.,,,,,
sau,No matching stocks found.,,,,,
sau[s5379],No matching stocks found.,,,,,
Pfdn2[01239],No matching stocks found.,,,,,
l(3)02640[02640],No matching stocks found.,,,,,
Chchd3[03670],No matching stocks found.,,,,,
l(3)04053[04053],No matching stocks found.,,,,,
l(3)07882[07882],No matching stocks found.,,,,,
Ltn1,No matching stocks found.,,,,,
l(3)L1231[L1231],No matching stocks found.,,,,,
vers,No matching stocks found.,,,,,
vers[j2D3],No matching stocks found.,,,,,
l(3)mbn[1],No matching stocks found.,,,,,
ND-SGDH[1],No matching stocks found.,,,,,
l(3)neo38[1],No matching stocks found.,,,,,
l(3)psg2,No matching stocks found.,,,,,
stw,No matching stocks found.,,,,,
lackluster,No matching stocks found.,,,,,
lackluster[1],No matching stocks found.,,,,,
lap[1],No matching stocks found.,,,,,
lawc,No matching stocks found.,,,,,
lncRNA:let7C,No matching stocks found.,,,,,
mir-let7,No matching stocks found.,,,,,
lt[1],No matching stocks found.,,,,,
lt[unspecified],No matching stocks found.,,,,,
lva,No matching stocks found.,,,,,
mRpL1,No matching stocks found.,,,,,
mRpL17,No matching stocks found.,,,,,
mRpL18,No matching stocks found.,,,,,
mRpL23,No matching stocks found.,,,,,
mRpL27,No matching stocks found.,,,,,
mRpL30,No matching stocks found.,,,,,
mRpL33,No matching stocks found.,,,,,
mRpL34,No matching stocks found.,,,,,
mRpL38,No matching stocks found.,,,,,
mRpL39,No matching stocks found.,,,,,
mRpL42,No matching stocks found.,,,,,
mRpL44,No matching stocks found.,,,,,
mRpL46,No matching stocks found.,,,,,
mRpL48,No matching stocks found.,,,,,
mRpL52,No matching stocks found.,,,,,
mRpS10,No matching stocks found.,,,,,
mRpS11,No matching stocks found.,,,,,
mRpS25,No matching stocks found.,,,,,
mRpS26,No matching stocks found.,,,,,
mRpS30,No matching stocks found.,,,,,
mRpS31,No matching stocks found.,,,,,
mRpS35,No matching stocks found.,,,,,
mRpS6,No matching stocks found.,,,,,
mRpS9,No matching stocks found.,,,,,
mal[unspecified],No matching stocks found.,,,,,
myoblast-specific,No matching stocks found.,,,,,
mbm,No matching stocks found.,,,,,
mei-41[1],No matching stocks found.,,,,,
mei-41[unspecified],No matching stocks found.,,,,,
mei-P26[1],No matching stocks found.,,,,,
mgr,No matching stocks found.,,,,,
mog,No matching stocks found.,,,,,
mir-2492,No matching stocks found.,,,,,
mir-998,No matching stocks found.,,,,,
Zw10[5],No matching stocks found.,,,,,
mle[1],No matching stocks found.,,,,,
mmy,No matching stocks found.,,,,,
rsd,No matching stocks found.,,,,,
mrt,No matching stocks found.,,,,,
msb1l,No matching stocks found.,,,,,
msd1,No matching stocks found.,,,,,
msd5,No matching stocks found.,,,,,
msl-1[1],No matching stocks found.,,,,,
msl-2[1],No matching stocks found.,,,,,
msl-3[2],No matching stocks found.,,,,,
msl-3[unspecified],No matching stocks found.,,,,,
anon-25D26Ab,No matching stocks found.,,,,,
SmydA-8,No matching stocks found.,,,,,
mtSSB,No matching stocks found.,,,,,
mth[1],No matching stocks found.,,,,,
P{TRiP.JF02805},No matching stocks found.,,,,,
mudl,No matching stocks found.,,,,,
mwh[1],No matching stocks found.,,,,,
P{nSyb-GAL4.S},No matching stocks found.,,,,,
nAChRbeta3,No matching stocks found.,,,,,
na[1],No matching stocks found.,,,,,
ncd[1],No matching stocks found.,,,,,
ncd[2],No matching stocks found.,,,,,
ncm,No matching stocks found.,,,,,
neo,No matching stocks found.,,,,,
nero,No matching stocks found.,,,,,
NimA,No matching stocks found.,,,,,
NimC3,No matching stocks found.,,,,,
nocte[1],No matching stocks found.,,,,,
nod,No matching stocks found.,,,,,
Khc::nod,No matching stocks found.,,,,,
noi,No matching stocks found.,,,,,
nompB,No matching stocks found.,,,,,
nopo,No matching stocks found.,,,,,
nord[1],No matching stocks found.,,,,,
P{nrv2-GAL4.S},No matching stocks found.,,,,,
Ns2,No matching stocks found.,,,,,
nwk[1],No matching stocks found.,,,,,
nyo,No matching stocks found.,,,,,
omd,No matching stocks found.,,,,,
mbmC,No matching stocks found.,,,,,
opa-e,No matching stocks found.,,,,,
oculus-parvus,No matching stocks found.,,,,,
oculi-rugosissimi,No matching stocks found.,,,,,
or[1],No matching stocks found.,,,,,
Df(1)os[1],No matching stocks found.,,,,,
osp,No matching stocks found.,,,,,
p,No matching stocks found.,,,,,
p[unspecified],No matching stocks found.,,,,,
p47,No matching stocks found.,,,,,
CG42383,No matching stocks found.,,,,,
parvin,No matching stocks found.,,,,,
pelo,No matching stocks found.,,,,,
peo,No matching stocks found.,,,,,
pyg,No matching stocks found.,,,,,
P{GAL4-per.BS},No matching stocks found.,,,,,
Pgant8,No matching stocks found.,,,,,
pico,No matching stocks found.,,,,,
pim,No matching stocks found.,,,,,
pinta,No matching stocks found.,,,,,
pinta[1],No matching stocks found.,,,,,
pio,No matching stocks found.,,,,,
ple[1],No matching stocks found.,,,,,
pn[unspecified],No matching stocks found.,,,,,
SclA,No matching stocks found.,,,,,
SclB,No matching stocks found.,,,,,
hpRNA:CR33940,No matching stocks found.,,,,,
P{pnr-GAL4.U},No matching stocks found.,,,,,
P{GawB}pnr[MD237],No matching stocks found.,,,,,
pot,No matching stocks found.,,,,,
pr[unspecified],No matching stocks found.,,,,,
prel,No matching stocks found.,,,,,
prod,No matching stocks found.,,,,,
prod[k08810],No matching stocks found.,,,,,
promL,No matching stocks found.,,,,,
psidin,No matching stocks found.,,,,,
pst,No matching stocks found.,,,,,
ptc[su53],No matching stocks found.,,,,,
P{GawB}ptc[559.1],No matching stocks found.,,,,,
CG2841,No matching stocks found.,,,,,
puc[unspecified],No matching stocks found.,,,,,
pwn,No matching stocks found.,,,,,
pwn[unspecified],No matching stocks found.,,,,,
px,No matching stocks found.,,,,,
px[1],No matching stocks found.,,,,,
qvr[1],No matching stocks found.,,,,,
r2d2,No matching stocks found.,,,,,
rad50,No matching stocks found.,,,,,
ras[unspecified],No matching stocks found.,,,,,
rb[unspecified],No matching stocks found.,,,,,
rg,No matching stocks found.,,,,,
Rho1[unspecified],No matching stocks found.,,,,,
rho-6,No matching stocks found.,,,,,
rigel,No matching stocks found.,,,,,
rk[1],No matching stocks found.,,,,,
rn[1],No matching stocks found.,,,,,
rngo,No matching stocks found.,,,,,
roX1-CES,No matching stocks found.,,,,,
rod,No matching stocks found.,,,,,
rogdi[1],No matching stocks found.,,,,,
rost,No matching stocks found.,,,,,
rtet,No matching stocks found.,,,,,
rtv,No matching stocks found.,,,,,
P{rib7},No matching stocks found.,,,,,
ry[unspecified],No matching stocks found.,,,,,
sano,No matching stocks found.,,,,,
sas,No matching stocks found.,,,,,
sbr[1],No matching stocks found.,,,,,
scramb2,No matching stocks found.,,,,,
scyl,No matching stocks found.,,,,,
sprd,No matching stocks found.,,,,,
sds22,No matching stocks found.,,,,,
Sec24AB,No matching stocks found.,,,,,
Sec3,No matching stocks found.,,,,,
Sec63,No matching stocks found.,,,,,
sha,No matching stocks found.,,,,,
sif,No matching stocks found.,,,,,
sky,No matching stocks found.,,,,,
slo[1],No matching stocks found.,,,,,
slow,No matching stocks found.,,,,,
sls[1],No matching stocks found.,,,,,
smk,No matching stocks found.,,,,,
smk[1],No matching stocks found.,,,,,
Dyrk2[1],No matching stocks found.,,,,,
snoRNA:Or-CD2,No matching stocks found.,,,,,
snoRNA:Psi28S-2622,No matching stocks found.,,,,,
spd-2,No matching stocks found.,,,,,
P{UAS-DsRed.mir-bft.sponge},No matching stocks found.,,,,,
Sb[Spi],No matching stocks found.,,,,,
Fas2[spin],No matching stocks found.,,,,,
spoon[1],No matching stocks found.,,,,,
ssp3,No matching stocks found.,,,,,
Df(1)sta,No matching stocks found.,,,,,
Hsp83[08445],No matching stocks found.,,,,,
ste14,No matching stocks found.,,,,,
aub[sting-1],No matching stocks found.,,,,,
stumps,No matching stocks found.,,,,,
su(f)[1],No matching stocks found.,,,,,
Su(S),No matching stocks found.,,,,,
C(1;Y)12,No matching stocks found.,,,,,
sun,No matching stocks found.,,,,,
fs(2)sun,No matching stocks found.,,,,,
Df(1)svr,No matching stocks found.,,,,,
t,No matching stocks found.,,,,,
tardiness,No matching stocks found.,,,,,
tardiness[t],No matching stocks found.,,,,,
tamo,No matching stocks found.,,,,,
Tnks,No matching stocks found.,,,,,
tay,No matching stocks found.,,,,,
tefu[1],No matching stocks found.,,,,,
tex,No matching stocks found.,,,,,
Diap1[1],No matching stocks found.,,,,,
thoc6,No matching stocks found.,,,,,
tinc,No matching stocks found.,,,,,
toc,No matching stocks found.,,,,,
tra[1],No matching stocks found.,,,,,
tra2[1],No matching stocks found.,,,,,
trbd,No matching stocks found.,,,,,
trsn,No matching stocks found.,,,,,
P{GawB}tsh[md621],No matching stocks found.,,,,,
P{tubP-GAL4},No matching stocks found.,,,,,
tun,No matching stocks found.,,,,,
tw[unspecified],No matching stocks found.,,,,,
P{GAL4-twi.G},No matching stocks found.,,,,,
P{TRiP.JF03141},No matching stocks found.,,,,,
tyn,No matching stocks found.,,,,,
uex[1],No matching stocks found.,,,,,
unc-45,No matching stocks found.,,,,,
und,No matching stocks found.,,,,,
up[1],No matching stocks found.,,,,,
P{SUPor-P}verm[KG07819],No matching stocks found.,,,,,
vg[1],No matching stocks found.,,,,,
viaf,No matching stocks found.,,,,,
vib,No matching stocks found.,,,,,
vig2,No matching stocks found.,,,,,
vih,No matching stocks found.,,,,,
vsg,No matching stocks found.,,,,,
wac,No matching stocks found.,,,,,
wbl,No matching stocks found.,,,,,
P{TRiP.HM05150},No matching stocks found.,,,,,
P{GAL4-wg.M},No matching stocks found.,,,,,
wge,No matching stocks found.,,,,,
wls,No matching stocks found.,,,,,
wmd,No matching stocks found.,,,,,
norpA[35],No matching stocks found.,,,,,
yellow-b,No matching stocks found.,,,,,
yellow-c,No matching stocks found.,,,,,
yellow-d2,No matching stocks found.,,,,,
yuri,No matching stocks found.,,,,,
zye,No matching stocks found.,,,,,